G04 ---------------------------- Layer name :BOTTOM LAYER*
G04 EasyEDA v5.7.26, Thu, 06 Sep 2018 12:09:48 GMT*
G04 1eb5537f58b14eb1877341f75cbde37e*
G04 Gerber Generator version 0.2*
G04 Scale: 100 percent, Rotated: No, Reflected: No *
G04 Dimensions in inches *
G04 leading zeros omitted , absolute positions ,2 integer and 4 decimal *
%FSLAX24Y24*%
%MOIN*%
G90*
G70D02*

%ADD10C,0.010000*%
%ADD12C,0.024400*%
%ADD17R,0.080000X0.080000*%
%ADD18C,0.008000*%

%LPD*%
G54D10*
G01X13500Y21500D02*
G01X13500Y22500D01*
G01X14500Y22500D02*
G01X14500Y21500D01*
G01X15500Y22500D02*
G01X15500Y21500D01*
G01X16500Y22500D02*
G01X16500Y21500D01*
G01X17500Y22500D02*
G01X17500Y21500D01*
G01X18500Y22500D02*
G01X18500Y21500D01*
G01X19500Y22500D02*
G01X19500Y21500D01*
G01X20500Y22500D02*
G01X20500Y21500D01*
G01X20500Y15500D02*
G01X20500Y14500D01*
G01X19500Y15500D02*
G01X19500Y14500D01*
G01X18500Y15500D02*
G01X18500Y14500D01*
G01X17500Y15500D02*
G01X17500Y14500D01*
G01X16500Y15500D02*
G01X16500Y14500D01*
G01X15500Y15500D02*
G01X15500Y14500D01*
G01X14500Y15500D02*
G01X14500Y14500D01*
G01X13500Y15500D02*
G01X13500Y14500D01*
G01X3500Y15500D02*
G01X3500Y14500D01*
G01X4500Y15500D02*
G01X4500Y14500D01*
G01X5500Y15500D02*
G01X5500Y14500D01*
G01X6500Y15500D02*
G01X6500Y14500D01*
G01X7500Y15500D02*
G01X7500Y14500D01*
G01X8500Y15500D02*
G01X8500Y14500D01*
G01X9500Y15500D02*
G01X9500Y14500D01*
G01X10500Y15500D02*
G01X10500Y14500D01*
G01X10500Y21500D02*
G01X10500Y22500D01*
G01X9500Y22500D02*
G01X9500Y21500D01*
G01X8500Y22500D02*
G01X8500Y21500D01*
G01X7500Y22500D02*
G01X7500Y21500D01*
G01X6500Y22500D02*
G01X6500Y21500D01*
G01X5500Y22500D02*
G01X5500Y21500D01*
G01X4500Y22500D02*
G01X4500Y21500D01*
G01X3500Y22500D02*
G01X3500Y21500D01*
G01X10500Y12500D02*
G01X11500Y12500D01*
G01X10500Y10500D02*
G01X11500Y10500D01*
G01X10500Y8500D02*
G01X11500Y8500D01*
G01X10500Y6500D02*
G01X11500Y6500D01*
G01X10500Y4500D02*
G01X11500Y4500D01*
G01X11500Y2500D02*
G01X10500Y2500D01*
G01X13500Y12500D02*
G01X14500Y12500D01*
G01X14500Y11500D02*
G01X13500Y11500D01*
G01X14500Y10500D02*
G01X13500Y10500D01*
G01X14500Y9500D02*
G01X13500Y9500D01*
G01X14500Y8500D02*
G01X13500Y8500D01*
G01X14500Y7500D02*
G01X13500Y7500D01*
G01X14500Y6500D02*
G01X13500Y6500D01*
G01X14500Y5500D02*
G01X13500Y5500D01*
G01X14500Y4500D02*
G01X13500Y4500D01*
G01X14500Y3500D02*
G01X13500Y3500D01*
G01X14500Y2500D02*
G01X13500Y2500D01*
G01X14500Y1500D02*
G01X13500Y1500D01*
G01X6500Y12500D02*
G01X7500Y12500D01*
G01X6500Y10500D02*
G01X7500Y10500D01*
G01X6500Y8500D02*
G01X7500Y8500D01*
G01X6500Y6500D02*
G01X7500Y6500D01*
G01X6500Y4500D02*
G01X7500Y4500D01*
G01X6500Y2500D02*
G01X7500Y2500D01*
G01X5500Y2500D02*
G01X4500Y2500D01*
G01X5500Y4500D02*
G01X4500Y4500D01*
G01X4500Y6500D02*
G01X5500Y6500D01*
G01X4500Y8500D02*
G01X5500Y8500D01*
G01X4500Y10500D02*
G01X5500Y10500D01*
G01X4500Y12500D02*
G01X5500Y12500D01*
G01X500Y12500D02*
G01X1500Y12500D01*
G01X500Y10500D02*
G01X1500Y10500D01*
G01X1500Y8500D02*
G01X500Y8500D01*
G01X500Y6500D02*
G01X1500Y6500D01*
G01X500Y4500D02*
G01X1500Y4500D01*
G01X500Y2500D02*
G01X1500Y2500D01*
G01X19500Y12500D02*
G01X21500Y12500D01*
G01X21500Y12500D02*
G01X21500Y1500D01*
G01X20500Y12500D02*
G01X20500Y1500D01*
G01X19500Y12500D02*
G01X19500Y1500D01*
G01X19500Y1500D02*
G01X21500Y1500D01*
G54D18*
G01X56256Y23854D02*
G01X56256Y23090D01*
G01X56256Y23454D02*
G01X56147Y23563D01*
G01X56074Y23600D01*
G01X55965Y23600D01*
G01X55892Y23563D01*
G01X55856Y23454D01*
G01X55856Y23090D01*
G01X55507Y23854D02*
G01X55507Y23236D01*
G01X55470Y23127D01*
G01X55398Y23090D01*
G01X55325Y23090D01*
G01X55616Y23600D02*
G01X55361Y23600D01*
G01X54976Y23854D02*
G01X54976Y23236D01*
G01X54940Y23127D01*
G01X54867Y23090D01*
G01X54794Y23090D01*
G01X55085Y23600D02*
G01X54830Y23600D01*
G01X54554Y23600D02*
G01X54554Y22836D01*
G01X54554Y23490D02*
G01X54481Y23563D01*
G01X54409Y23600D01*
G01X54300Y23600D01*
G01X54227Y23563D01*
G01X54154Y23490D01*
G01X54118Y23381D01*
G01X54118Y23309D01*
G01X54154Y23200D01*
G01X54227Y23127D01*
G01X54300Y23090D01*
G01X54409Y23090D01*
G01X54481Y23127D01*
G01X54554Y23200D01*
G01X53478Y23490D02*
G01X53514Y23563D01*
G01X53623Y23600D01*
G01X53732Y23600D01*
G01X53841Y23563D01*
G01X53878Y23490D01*
G01X53841Y23418D01*
G01X53769Y23381D01*
G01X53587Y23345D01*
G01X53514Y23309D01*
G01X53478Y23236D01*
G01X53478Y23200D01*
G01X53514Y23127D01*
G01X53623Y23090D01*
G01X53732Y23090D01*
G01X53841Y23127D01*
G01X53878Y23200D01*
G01X53201Y23527D02*
G01X53238Y23490D01*
G01X53201Y23454D01*
G01X53165Y23490D01*
G01X53201Y23527D01*
G01X53201Y23272D02*
G01X53238Y23236D01*
G01X53201Y23200D01*
G01X53165Y23236D01*
G01X53201Y23272D01*
G01X52270Y24000D02*
G01X52925Y22836D01*
G01X51376Y24000D02*
G01X52030Y22836D01*
G01X50700Y23600D02*
G01X50700Y23018D01*
G01X50736Y22909D01*
G01X50772Y22872D01*
G01X50845Y22836D01*
G01X50954Y22836D01*
G01X51027Y22872D01*
G01X50700Y23490D02*
G01X50772Y23563D01*
G01X50845Y23600D01*
G01X50954Y23600D01*
G01X51027Y23563D01*
G01X51100Y23490D01*
G01X51136Y23381D01*
G01X51136Y23309D01*
G01X51100Y23200D01*
G01X51027Y23127D01*
G01X50954Y23090D01*
G01X50845Y23090D01*
G01X50772Y23127D01*
G01X50700Y23200D01*
G01X50460Y23854D02*
G01X50423Y23818D01*
G01X50387Y23854D01*
G01X50423Y23890D01*
G01X50460Y23854D01*
G01X50423Y23600D02*
G01X50423Y23090D01*
G01X50038Y23854D02*
G01X50038Y23236D01*
G01X50001Y23127D01*
G01X49929Y23090D01*
G01X49856Y23090D01*
G01X50147Y23600D02*
G01X49892Y23600D01*
G01X49616Y23854D02*
G01X49616Y23090D01*
G01X48940Y23600D02*
G01X48940Y23090D01*
G01X48940Y23490D02*
G01X49012Y23563D01*
G01X49085Y23600D01*
G01X49194Y23600D01*
G01X49267Y23563D01*
G01X49340Y23490D01*
G01X49376Y23381D01*
G01X49376Y23309D01*
G01X49340Y23200D01*
G01X49267Y23127D01*
G01X49194Y23090D01*
G01X49085Y23090D01*
G01X49012Y23127D01*
G01X48940Y23200D01*
G01X48700Y23854D02*
G01X48700Y23090D01*
G01X48700Y23490D02*
G01X48627Y23563D01*
G01X48554Y23600D01*
G01X48445Y23600D01*
G01X48372Y23563D01*
G01X48300Y23490D01*
G01X48263Y23381D01*
G01X48263Y23309D01*
G01X48300Y23200D01*
G01X48372Y23127D01*
G01X48445Y23090D01*
G01X48554Y23090D01*
G01X48627Y23127D01*
G01X48700Y23200D01*
G01X47987Y23272D02*
G01X48023Y23236D01*
G01X47987Y23200D01*
G01X47950Y23236D01*
G01X47987Y23272D01*
G01X47274Y23490D02*
G01X47347Y23563D01*
G01X47420Y23600D01*
G01X47529Y23600D01*
G01X47601Y23563D01*
G01X47674Y23490D01*
G01X47710Y23381D01*
G01X47710Y23309D01*
G01X47674Y23200D01*
G01X47601Y23127D01*
G01X47529Y23090D01*
G01X47420Y23090D01*
G01X47347Y23127D01*
G01X47274Y23200D01*
G01X46852Y23600D02*
G01X46925Y23563D01*
G01X46998Y23490D01*
G01X47034Y23381D01*
G01X47034Y23309D01*
G01X46998Y23200D01*
G01X46925Y23127D01*
G01X46852Y23090D01*
G01X46743Y23090D01*
G01X46670Y23127D01*
G01X46598Y23200D01*
G01X46561Y23309D01*
G01X46561Y23381D01*
G01X46598Y23490D01*
G01X46670Y23563D01*
G01X46743Y23600D01*
G01X46852Y23600D01*
G01X46321Y23600D02*
G01X46321Y23090D01*
G01X46321Y23454D02*
G01X46212Y23563D01*
G01X46140Y23600D01*
G01X46030Y23600D01*
G01X45958Y23563D01*
G01X45921Y23454D01*
G01X45921Y23090D01*
G01X45921Y23454D02*
G01X45812Y23563D01*
G01X45740Y23600D01*
G01X45630Y23600D01*
G01X45558Y23563D01*
G01X45521Y23454D01*
G01X45521Y23090D01*
G01X44627Y24000D02*
G01X45281Y22836D01*
G01X43950Y23600D02*
G01X43950Y23018D01*
G01X43987Y22909D01*
G01X44023Y22872D01*
G01X44096Y22836D01*
G01X44205Y22836D01*
G01X44278Y22872D01*
G01X43950Y23490D02*
G01X44023Y23563D01*
G01X44096Y23600D01*
G01X44205Y23600D01*
G01X44278Y23563D01*
G01X44350Y23490D01*
G01X44387Y23381D01*
G01X44387Y23309D01*
G01X44350Y23200D01*
G01X44278Y23127D01*
G01X44205Y23090D01*
G01X44096Y23090D01*
G01X44023Y23127D01*
G01X43950Y23200D01*
G01X43529Y23600D02*
G01X43601Y23563D01*
G01X43674Y23490D01*
G01X43710Y23381D01*
G01X43710Y23309D01*
G01X43674Y23200D01*
G01X43601Y23127D01*
G01X43529Y23090D01*
G01X43420Y23090D01*
G01X43347Y23127D01*
G01X43274Y23200D01*
G01X43238Y23309D01*
G01X43238Y23381D01*
G01X43274Y23490D01*
G01X43347Y23563D01*
G01X43420Y23600D01*
G01X43529Y23600D01*
G01X42998Y23854D02*
G01X42998Y23090D01*
G01X42998Y23490D02*
G01X42925Y23563D01*
G01X42852Y23600D01*
G01X42743Y23600D01*
G01X42670Y23563D01*
G01X42598Y23490D01*
G01X42561Y23381D01*
G01X42561Y23309D01*
G01X42598Y23200D01*
G01X42670Y23127D01*
G01X42743Y23090D01*
G01X42852Y23090D01*
G01X42925Y23127D01*
G01X42998Y23200D01*
G01X42321Y23854D02*
G01X42321Y23090D01*
G01X42081Y23854D02*
G01X42045Y23818D01*
G01X42009Y23854D01*
G01X42045Y23890D01*
G01X42081Y23854D01*
G01X42045Y23600D02*
G01X42045Y23090D01*
G01X41769Y23600D02*
G01X41769Y23090D01*
G01X41769Y23454D02*
G01X41660Y23563D01*
G01X41587Y23600D01*
G01X41478Y23600D01*
G01X41405Y23563D01*
G01X41369Y23454D01*
G01X41369Y23090D01*
G01X41129Y23600D02*
G01X41129Y23090D01*
G01X41129Y23381D02*
G01X41092Y23490D01*
G01X41020Y23563D01*
G01X40947Y23600D01*
G01X40838Y23600D01*
G01X40598Y23854D02*
G01X40561Y23818D01*
G01X40525Y23854D01*
G01X40561Y23890D01*
G01X40598Y23854D01*
G01X40561Y23600D02*
G01X40561Y23090D01*
G01X40285Y23381D02*
G01X39849Y23381D01*
G01X39849Y23454D01*
G01X39885Y23527D01*
G01X39921Y23563D01*
G01X39994Y23600D01*
G01X40103Y23600D01*
G01X40176Y23563D01*
G01X40249Y23490D01*
G01X40285Y23381D01*
G01X40285Y23309D01*
G01X40249Y23200D01*
G01X40176Y23127D01*
G01X40103Y23090D01*
G01X39994Y23090D01*
G01X39921Y23127D01*
G01X39849Y23200D01*
G01X39609Y23600D02*
G01X39609Y23236D01*
G01X39572Y23127D01*
G01X39500Y23090D01*
G01X39390Y23090D01*
G01X39318Y23127D01*
G01X39209Y23236D01*
G01X39209Y23600D02*
G01X39209Y23090D01*
G01X38969Y23600D02*
G01X38969Y23090D01*
G01X38969Y23381D02*
G01X38932Y23490D01*
G01X38860Y23563D01*
G01X38787Y23600D01*
G01X38678Y23600D01*
G01X37783Y24000D02*
G01X38438Y22836D01*
G01X37543Y23854D02*
G01X37543Y23090D01*
G01X37543Y23854D02*
G01X37289Y23854D01*
G01X37180Y23818D01*
G01X37107Y23745D01*
G01X37070Y23672D01*
G01X37034Y23563D01*
G01X37034Y23381D01*
G01X37070Y23272D01*
G01X37107Y23200D01*
G01X37180Y23127D01*
G01X37289Y23090D01*
G01X37543Y23090D01*
G01X36794Y23854D02*
G01X36794Y23090D01*
G01X36554Y23854D02*
G01X36263Y23490D01*
G01X36263Y23090D01*
G01X35972Y23854D02*
G01X36263Y23490D01*
G01X35078Y24000D02*
G01X35732Y22836D01*
G01X34838Y23854D02*
G01X34838Y23090D01*
G01X34838Y23490D02*
G01X34765Y23563D01*
G01X34692Y23600D01*
G01X34583Y23600D01*
G01X34510Y23563D01*
G01X34438Y23490D01*
G01X34401Y23381D01*
G01X34401Y23309D01*
G01X34438Y23200D01*
G01X34510Y23127D01*
G01X34583Y23090D01*
G01X34692Y23090D01*
G01X34765Y23127D01*
G01X34838Y23200D01*
G01X34161Y23854D02*
G01X34161Y23090D01*
G01X33740Y23600D02*
G01X33812Y23563D01*
G01X33885Y23490D01*
G01X33921Y23381D01*
G01X33921Y23309D01*
G01X33885Y23200D01*
G01X33812Y23127D01*
G01X33740Y23090D01*
G01X33630Y23090D01*
G01X33558Y23127D01*
G01X33485Y23200D01*
G01X33449Y23309D01*
G01X33449Y23381D01*
G01X33485Y23490D01*
G01X33558Y23563D01*
G01X33630Y23600D01*
G01X33740Y23600D01*
G01X33209Y23854D02*
G01X33209Y23090D01*
G01X33209Y23490D02*
G01X33136Y23563D01*
G01X33063Y23600D01*
G01X32954Y23600D01*
G01X32881Y23563D01*
G01X32809Y23490D01*
G01X32772Y23381D01*
G01X32772Y23309D01*
G01X32809Y23200D01*
G01X32881Y23127D01*
G01X32954Y23090D01*
G01X33063Y23090D01*
G01X33136Y23127D01*
G01X33209Y23200D01*
G01X31878Y24000D02*
G01X32532Y22836D01*
G01X31638Y23600D02*
G01X31638Y23090D01*
G01X31638Y23454D02*
G01X31529Y23563D01*
G01X31456Y23600D01*
G01X31347Y23600D01*
G01X31274Y23563D01*
G01X31238Y23454D01*
G01X31238Y23090D01*
G01X31238Y23454D02*
G01X31129Y23563D01*
G01X31056Y23600D01*
G01X30947Y23600D01*
G01X30874Y23563D01*
G01X30838Y23454D01*
G01X30838Y23090D01*
G01X30161Y23600D02*
G01X30161Y23090D01*
G01X30161Y23490D02*
G01X30234Y23563D01*
G01X30307Y23600D01*
G01X30416Y23600D01*
G01X30489Y23563D01*
G01X30561Y23490D01*
G01X30598Y23381D01*
G01X30598Y23309D01*
G01X30561Y23200D01*
G01X30489Y23127D01*
G01X30416Y23090D01*
G01X30307Y23090D01*
G01X30234Y23127D01*
G01X30161Y23200D01*
G01X29521Y23490D02*
G01X29558Y23563D01*
G01X29667Y23600D01*
G01X29776Y23600D01*
G01X29885Y23563D01*
G01X29921Y23490D01*
G01X29885Y23418D01*
G01X29812Y23381D01*
G01X29630Y23345D01*
G01X29558Y23309D01*
G01X29521Y23236D01*
G01X29521Y23200D01*
G01X29558Y23127D01*
G01X29667Y23090D01*
G01X29776Y23090D01*
G01X29885Y23127D01*
G01X29921Y23200D01*
G01X29172Y23854D02*
G01X29172Y23236D01*
G01X29136Y23127D01*
G01X29063Y23090D01*
G01X28990Y23090D01*
G01X29281Y23600D02*
G01X29027Y23600D01*
G01X28750Y23381D02*
G01X28314Y23381D01*
G01X28314Y23454D01*
G01X28350Y23527D01*
G01X28387Y23563D01*
G01X28460Y23600D01*
G01X28569Y23600D01*
G01X28641Y23563D01*
G01X28714Y23490D01*
G01X28750Y23381D01*
G01X28750Y23309D01*
G01X28714Y23200D01*
G01X28641Y23127D01*
G01X28569Y23090D01*
G01X28460Y23090D01*
G01X28387Y23127D01*
G01X28314Y23200D01*
G01X28074Y23600D02*
G01X28074Y23090D01*
G01X28074Y23381D02*
G01X28038Y23490D01*
G01X27965Y23563D01*
G01X27892Y23600D01*
G01X27783Y23600D01*
G01X26889Y24000D02*
G01X27543Y22836D01*
G01X26649Y23600D02*
G01X26649Y22836D01*
G01X26649Y23490D02*
G01X26576Y23563D01*
G01X26503Y23600D01*
G01X26394Y23600D01*
G01X26321Y23563D01*
G01X26249Y23490D01*
G01X26212Y23381D01*
G01X26212Y23309D01*
G01X26249Y23200D01*
G01X26321Y23127D01*
G01X26394Y23090D01*
G01X26503Y23090D01*
G01X26576Y23127D01*
G01X26649Y23200D01*
G01X25972Y23600D02*
G01X25972Y23090D01*
G01X25972Y23381D02*
G01X25936Y23490D01*
G01X25863Y23563D01*
G01X25790Y23600D01*
G01X25681Y23600D01*
G01X25260Y23600D02*
G01X25332Y23563D01*
G01X25405Y23490D01*
G01X25441Y23381D01*
G01X25441Y23309D01*
G01X25405Y23200D01*
G01X25332Y23127D01*
G01X25260Y23090D01*
G01X25150Y23090D01*
G01X25078Y23127D01*
G01X25005Y23200D01*
G01X24969Y23309D01*
G01X24969Y23381D01*
G01X25005Y23490D01*
G01X25078Y23563D01*
G01X25150Y23600D01*
G01X25260Y23600D01*
G01X24620Y23854D02*
G01X24620Y23236D01*
G01X24583Y23127D01*
G01X24510Y23090D01*
G01X24438Y23090D01*
G01X24729Y23600D02*
G01X24474Y23600D01*
G01X24016Y23600D02*
G01X24089Y23563D01*
G01X24161Y23490D01*
G01X24198Y23381D01*
G01X24198Y23309D01*
G01X24161Y23200D01*
G01X24089Y23127D01*
G01X24016Y23090D01*
G01X23907Y23090D01*
G01X23834Y23127D01*
G01X23761Y23200D01*
G01X23725Y23309D01*
G01X23725Y23381D01*
G01X23761Y23490D01*
G01X23834Y23563D01*
G01X23907Y23600D01*
G01X24016Y23600D01*
G01X23485Y23854D02*
G01X23485Y23090D01*
G01X23485Y23490D02*
G01X23412Y23563D01*
G01X23340Y23600D01*
G01X23230Y23600D01*
G01X23158Y23563D01*
G01X23085Y23490D01*
G01X23049Y23381D01*
G01X23049Y23309D01*
G01X23085Y23200D01*
G01X23158Y23127D01*
G01X23230Y23090D01*
G01X23340Y23090D01*
G01X23412Y23127D01*
G01X23485Y23200D01*
G01X22627Y23600D02*
G01X22700Y23563D01*
G01X22772Y23490D01*
G01X22809Y23381D01*
G01X22809Y23309D01*
G01X22772Y23200D01*
G01X22700Y23127D01*
G01X22627Y23090D01*
G01X22518Y23090D01*
G01X22445Y23127D01*
G01X22372Y23200D01*
G01X22336Y23309D01*
G01X22336Y23381D01*
G01X22372Y23490D01*
G01X22445Y23563D01*
G01X22518Y23600D01*
G01X22627Y23600D01*
G01X21660Y23600D02*
G01X21660Y23090D01*
G01X21660Y23490D02*
G01X21732Y23563D01*
G01X21805Y23600D01*
G01X21914Y23600D01*
G01X21987Y23563D01*
G01X22060Y23490D01*
G01X22096Y23381D01*
G01X22096Y23309D01*
G01X22060Y23200D01*
G01X21987Y23127D01*
G01X21914Y23090D01*
G01X21805Y23090D01*
G01X21732Y23127D01*
G01X21660Y23200D01*
G01X21420Y23600D02*
G01X21420Y23090D01*
G01X21420Y23381D02*
G01X21383Y23490D01*
G01X21310Y23563D01*
G01X21238Y23600D01*
G01X21129Y23600D01*
G01X20452Y23854D02*
G01X20452Y23090D01*
G01X20452Y23490D02*
G01X20525Y23563D01*
G01X20598Y23600D01*
G01X20707Y23600D01*
G01X20780Y23563D01*
G01X20852Y23490D01*
G01X20889Y23381D01*
G01X20889Y23309D01*
G01X20852Y23200D01*
G01X20780Y23127D01*
G01X20707Y23090D01*
G01X20598Y23090D01*
G01X20525Y23127D01*
G01X20452Y23200D01*
G01X20212Y22836D02*
G01X19558Y22836D01*
G01X18881Y23600D02*
G01X18881Y23018D01*
G01X18918Y22909D01*
G01X18954Y22872D01*
G01X19027Y22836D01*
G01X19136Y22836D01*
G01X19209Y22872D01*
G01X18881Y23490D02*
G01X18954Y23563D01*
G01X19027Y23600D01*
G01X19136Y23600D01*
G01X19209Y23563D01*
G01X19281Y23490D01*
G01X19318Y23381D01*
G01X19318Y23309D01*
G01X19281Y23200D01*
G01X19209Y23127D01*
G01X19136Y23090D01*
G01X19027Y23090D01*
G01X18954Y23127D01*
G01X18881Y23200D01*
G01X18641Y23381D02*
G01X18205Y23381D01*
G01X18205Y23454D01*
G01X18241Y23527D01*
G01X18278Y23563D01*
G01X18350Y23600D01*
G01X18460Y23600D01*
G01X18532Y23563D01*
G01X18605Y23490D01*
G01X18641Y23381D01*
G01X18641Y23309D01*
G01X18605Y23200D01*
G01X18532Y23127D01*
G01X18460Y23090D01*
G01X18350Y23090D01*
G01X18278Y23127D01*
G01X18205Y23200D01*
G01X17965Y23600D02*
G01X17965Y23090D01*
G01X17965Y23381D02*
G01X17929Y23490D01*
G01X17856Y23563D01*
G01X17783Y23600D01*
G01X17674Y23600D01*
G01X17434Y23854D02*
G01X17434Y23090D01*
G01X17434Y23490D02*
G01X17361Y23563D01*
G01X17289Y23600D01*
G01X17180Y23600D01*
G01X17107Y23563D01*
G01X17034Y23490D01*
G01X16998Y23381D01*
G01X16998Y23309D01*
G01X17034Y23200D01*
G01X17107Y23127D01*
G01X17180Y23090D01*
G01X17289Y23090D01*
G01X17361Y23127D01*
G01X17434Y23200D01*
G01X16758Y23381D02*
G01X16321Y23381D01*
G01X16321Y23454D01*
G01X16358Y23527D01*
G01X16394Y23563D01*
G01X16467Y23600D01*
G01X16576Y23600D01*
G01X16649Y23563D01*
G01X16721Y23490D01*
G01X16758Y23381D01*
G01X16758Y23309D01*
G01X16721Y23200D01*
G01X16649Y23127D01*
G01X16576Y23090D01*
G01X16467Y23090D01*
G01X16394Y23127D01*
G01X16321Y23200D01*
G01X16081Y23600D02*
G01X16081Y23090D01*
G01X16081Y23381D02*
G01X16045Y23490D01*
G01X15972Y23563D01*
G01X15900Y23600D01*
G01X15790Y23600D01*
G01X14896Y24000D02*
G01X15550Y22836D01*
G01X14656Y23854D02*
G01X14656Y23090D01*
G01X14656Y23854D02*
G01X14329Y23854D01*
G01X14220Y23818D01*
G01X14183Y23781D01*
G01X14147Y23709D01*
G01X14147Y23636D01*
G01X14183Y23563D01*
G01X14220Y23527D01*
G01X14329Y23490D01*
G01X14656Y23490D01*
G01X14401Y23490D02*
G01X14147Y23090D01*
G01X13907Y23854D02*
G01X13907Y23090D01*
G01X13907Y23854D02*
G01X13434Y23854D01*
G01X13907Y23490D02*
G01X13616Y23490D01*
G01X13907Y23090D02*
G01X13434Y23090D01*
G01X12903Y23854D02*
G01X13194Y23090D01*
G01X12903Y23854D02*
G01X12612Y23090D01*
G01X13085Y23345D02*
G01X12721Y23345D01*
G01X12372Y23854D02*
G01X12372Y23090D01*
G01X12372Y23854D02*
G01X12118Y23854D01*
G01X12009Y23818D01*
G01X11936Y23745D01*
G01X11900Y23672D01*
G01X11863Y23563D01*
G01X11863Y23381D01*
G01X11900Y23272D01*
G01X11936Y23200D01*
G01X12009Y23127D01*
G01X12118Y23090D01*
G01X12372Y23090D01*
G01X11623Y23854D02*
G01X11623Y23090D01*
G01X11623Y23854D02*
G01X11332Y23090D01*
G01X11041Y23854D02*
G01X11332Y23090D01*
G01X11041Y23854D02*
G01X11041Y23090D01*
G01X10801Y23854D02*
G01X10801Y23090D01*
G01X10801Y23854D02*
G01X10329Y23854D01*
G01X10801Y23490D02*
G01X10510Y23490D01*
G01X10801Y23090D02*
G01X10329Y23090D01*
G01X10052Y23272D02*
G01X10089Y23236D01*
G01X10052Y23200D01*
G01X10016Y23236D01*
G01X10052Y23272D01*
G01X9776Y23600D02*
G01X9776Y23090D01*
G01X9776Y23454D02*
G01X9667Y23563D01*
G01X9594Y23600D01*
G01X9485Y23600D01*
G01X9412Y23563D01*
G01X9376Y23454D01*
G01X9376Y23090D01*
G01X9376Y23454D02*
G01X9267Y23563D01*
G01X9194Y23600D01*
G01X9085Y23600D01*
G01X9012Y23563D01*
G01X8976Y23454D01*
G01X8976Y23090D01*
G01X8300Y23854D02*
G01X8300Y23090D01*
G01X8300Y23490D02*
G01X8372Y23563D01*
G01X8445Y23600D01*
G01X8554Y23600D01*
G01X8627Y23563D01*
G01X8700Y23490D01*
G01X8736Y23381D01*
G01X8736Y23309D01*
G01X8700Y23200D01*
G01X8627Y23127D01*
G01X8554Y23090D01*
G01X8445Y23090D01*
G01X8372Y23127D01*
G01X8300Y23200D01*
G01X21263Y16509D02*
G01X21263Y15927D01*
G01X21300Y15818D01*
G01X21336Y15781D01*
G01X21409Y15745D01*
G01X21518Y15745D01*
G01X21590Y15781D01*
G01X21263Y16400D02*
G01X21336Y16472D01*
G01X21409Y16509D01*
G01X21518Y16509D01*
G01X21590Y16472D01*
G01X21663Y16400D01*
G01X21700Y16290D01*
G01X21700Y16218D01*
G01X21663Y16109D01*
G01X21590Y16036D01*
G01X21518Y16000D01*
G01X21409Y16000D01*
G01X21336Y16036D01*
G01X21263Y16109D01*
G01X20841Y16509D02*
G01X20914Y16472D01*
G01X20987Y16400D01*
G01X21023Y16290D01*
G01X21023Y16218D01*
G01X20987Y16109D01*
G01X20914Y16036D01*
G01X20841Y16000D01*
G01X20732Y16000D01*
G01X20660Y16036D01*
G01X20587Y16109D01*
G01X20550Y16218D01*
G01X20550Y16290D01*
G01X20587Y16400D01*
G01X20660Y16472D01*
G01X20732Y16509D01*
G01X20841Y16509D01*
G01X20310Y16763D02*
G01X20310Y16000D01*
G01X20310Y16400D02*
G01X20238Y16472D01*
G01X20165Y16509D01*
G01X20056Y16509D01*
G01X19983Y16472D01*
G01X19910Y16400D01*
G01X19874Y16290D01*
G01X19874Y16218D01*
G01X19910Y16109D01*
G01X19983Y16036D01*
G01X20056Y16000D01*
G01X20165Y16000D01*
G01X20238Y16036D01*
G01X20310Y16109D01*
G01X19634Y16763D02*
G01X19634Y16000D01*
G01X19394Y16763D02*
G01X19358Y16727D01*
G01X19321Y16763D01*
G01X19358Y16800D01*
G01X19394Y16763D01*
G01X19358Y16509D02*
G01X19358Y16000D01*
G01X19081Y16509D02*
G01X19081Y16000D01*
G01X19081Y16363D02*
G01X18972Y16472D01*
G01X18900Y16509D01*
G01X18790Y16509D01*
G01X18718Y16472D01*
G01X18681Y16363D01*
G01X18681Y16000D01*
G01X18441Y16509D02*
G01X18441Y16000D01*
G01X18441Y16290D02*
G01X18405Y16400D01*
G01X18332Y16472D01*
G01X18260Y16509D01*
G01X18150Y16509D01*
G01X17910Y16763D02*
G01X17874Y16727D01*
G01X17838Y16763D01*
G01X17874Y16800D01*
G01X17910Y16763D01*
G01X17874Y16509D02*
G01X17874Y16000D01*
G01X17598Y16290D02*
G01X17161Y16290D01*
G01X17161Y16363D01*
G01X17198Y16436D01*
G01X17234Y16472D01*
G01X17307Y16509D01*
G01X17416Y16509D01*
G01X17489Y16472D01*
G01X17561Y16400D01*
G01X17598Y16290D01*
G01X17598Y16218D01*
G01X17561Y16109D01*
G01X17489Y16036D01*
G01X17416Y16000D01*
G01X17307Y16000D01*
G01X17234Y16036D01*
G01X17161Y16109D01*
G01X16921Y16509D02*
G01X16921Y16145D01*
G01X16885Y16036D01*
G01X16812Y16000D01*
G01X16703Y16000D01*
G01X16630Y16036D01*
G01X16521Y16145D01*
G01X16521Y16509D02*
G01X16521Y16000D01*
G01X16281Y16509D02*
G01X16281Y16000D01*
G01X16281Y16290D02*
G01X16245Y16400D01*
G01X16172Y16472D01*
G01X16100Y16509D01*
G01X15990Y16509D01*
G01X15205Y16472D02*
G01X15241Y16545D01*
G01X15314Y16581D01*
G01X15423Y16581D01*
G01X15496Y16545D01*
G01X15532Y16509D01*
G01X15569Y16400D01*
G01X15569Y16290D01*
G01X15532Y16218D01*
G01X15460Y16181D01*
G01X15350Y16181D01*
G01X15278Y16218D01*
G01X15241Y16290D01*
G01X15423Y16581D02*
G01X15496Y16509D01*
G01X15532Y16400D01*
G01X15532Y16290D01*
G01X15496Y16218D01*
G01X15460Y16181D01*
G01X15205Y16581D02*
G01X15241Y16290D01*
G01X15241Y16218D01*
G01X15169Y16181D01*
G01X15096Y16181D01*
G01X15023Y16254D01*
G01X14987Y16363D01*
G01X14987Y16436D01*
G01X15023Y16545D01*
G01X15060Y16618D01*
G01X15132Y16690D01*
G01X15205Y16727D01*
G01X15314Y16763D01*
G01X15423Y16763D01*
G01X15532Y16727D01*
G01X15605Y16690D01*
G01X15678Y16618D01*
G01X15714Y16545D01*
G01X15750Y16436D01*
G01X15750Y16327D01*
G01X15714Y16218D01*
G01X15678Y16145D01*
G01X15605Y16072D01*
G01X15532Y16036D01*
G01X15423Y16000D01*
G01X15314Y16000D01*
G01X15205Y16036D01*
G01X15132Y16072D01*
G01X15096Y16109D01*
G01X15169Y16581D02*
G01X15205Y16290D01*
G01X15205Y16218D01*
G01X15169Y16181D01*
G01X14310Y16509D02*
G01X14310Y15927D01*
G01X14347Y15818D01*
G01X14383Y15781D01*
G01X14456Y15745D01*
G01X14565Y15745D01*
G01X14638Y15781D01*
G01X14310Y16400D02*
G01X14383Y16472D01*
G01X14456Y16509D01*
G01X14565Y16509D01*
G01X14638Y16472D01*
G01X14710Y16400D01*
G01X14747Y16290D01*
G01X14747Y16218D01*
G01X14710Y16109D01*
G01X14638Y16036D01*
G01X14565Y16000D01*
G01X14456Y16000D01*
G01X14383Y16036D01*
G01X14310Y16109D01*
G01X14070Y16509D02*
G01X14070Y16000D01*
G01X14070Y16363D02*
G01X13961Y16472D01*
G01X13889Y16509D01*
G01X13780Y16509D01*
G01X13707Y16472D01*
G01X13670Y16363D01*
G01X13670Y16000D01*
G01X13670Y16363D02*
G01X13561Y16472D01*
G01X13489Y16509D01*
G01X13380Y16509D01*
G01X13307Y16472D01*
G01X13270Y16363D01*
G01X13270Y16000D01*
G01X12594Y16509D02*
G01X12594Y16000D01*
G01X12594Y16400D02*
G01X12667Y16472D01*
G01X12739Y16509D01*
G01X12849Y16509D01*
G01X12921Y16472D01*
G01X12994Y16400D01*
G01X13030Y16290D01*
G01X13030Y16218D01*
G01X12994Y16109D01*
G01X12921Y16036D01*
G01X12849Y16000D01*
G01X12739Y16000D01*
G01X12667Y16036D01*
G01X12594Y16109D01*
G01X12354Y16763D02*
G01X12318Y16727D01*
G01X12281Y16763D01*
G01X12318Y16800D01*
G01X12354Y16763D01*
G01X12318Y16509D02*
G01X12318Y16000D01*
G01X12041Y16763D02*
G01X12041Y16000D01*
G01X11765Y16181D02*
G01X11801Y16145D01*
G01X11765Y16109D01*
G01X11729Y16145D01*
G01X11765Y16181D01*
G01X11052Y16400D02*
G01X11125Y16472D01*
G01X11198Y16509D01*
G01X11307Y16509D01*
G01X11380Y16472D01*
G01X11452Y16400D01*
G01X11489Y16290D01*
G01X11489Y16218D01*
G01X11452Y16109D01*
G01X11380Y16036D01*
G01X11307Y16000D01*
G01X11198Y16000D01*
G01X11125Y16036D01*
G01X11052Y16109D01*
G01X10630Y16509D02*
G01X10703Y16472D01*
G01X10776Y16400D01*
G01X10812Y16290D01*
G01X10812Y16218D01*
G01X10776Y16109D01*
G01X10703Y16036D01*
G01X10630Y16000D01*
G01X10521Y16000D01*
G01X10449Y16036D01*
G01X10376Y16109D01*
G01X10339Y16218D01*
G01X10339Y16290D01*
G01X10376Y16400D01*
G01X10449Y16472D01*
G01X10521Y16509D01*
G01X10630Y16509D01*
G01X10100Y16509D02*
G01X10100Y16000D01*
G01X10100Y16363D02*
G01X9990Y16472D01*
G01X9918Y16509D01*
G01X9809Y16509D01*
G01X9736Y16472D01*
G01X9700Y16363D01*
G01X9700Y16000D01*
G01X9700Y16363D02*
G01X9590Y16472D01*
G01X9518Y16509D01*
G01X9409Y16509D01*
G01X9336Y16472D01*
G01X9300Y16363D01*
G01X9300Y16000D01*
G54D17*
G01X3500Y22500D03*
G01X4500Y22500D03*
G01X5500Y22500D03*
G01X6500Y22500D03*
G01X7500Y22500D03*
G01X8500Y22500D03*
G01X9500Y22500D03*
G01X10500Y22500D03*
G01X13500Y22500D03*
G01X14500Y22500D03*
G01X15500Y22500D03*
G01X16500Y22500D03*
G01X17500Y22500D03*
G01X18500Y22500D03*
G01X19500Y22500D03*
G01X20500Y22500D03*
G01X3500Y14500D03*
G01X4500Y14500D03*
G01X5500Y14500D03*
G01X6500Y14500D03*
G01X7500Y14500D03*
G01X8500Y14500D03*
G01X9500Y14500D03*
G01X10500Y14500D03*
G01X13500Y14500D03*
G01X14500Y14500D03*
G01X15500Y14500D03*
G01X16500Y14500D03*
G01X17500Y14500D03*
G01X18500Y14500D03*
G01X19500Y14500D03*
G01X20500Y14500D03*
G01X22500Y22500D03*
G01X23500Y22500D03*
G01X24500Y22500D03*
G01X25500Y22500D03*
G01X26500Y22500D03*
G01X27500Y22500D03*
G01X28500Y22500D03*
G01X29500Y22500D03*
G01X32500Y22500D03*
G01X33500Y22500D03*
G01X34500Y22500D03*
G01X35500Y22500D03*
G01X36500Y22500D03*
G01X37500Y22500D03*
G01X38500Y22500D03*
G01X39500Y22500D03*
G01X22500Y21500D03*
G01X23500Y21500D03*
G01X24500Y21500D03*
G01X25500Y21500D03*
G01X26500Y21500D03*
G01X27500Y21500D03*
G01X28500Y21500D03*
G01X29500Y21500D03*
G01X32500Y21500D03*
G01X33500Y21500D03*
G01X34500Y21500D03*
G01X35500Y21500D03*
G01X36500Y21500D03*
G01X37500Y21500D03*
G01X38500Y21500D03*
G01X39500Y21500D03*
G01X22500Y20500D03*
G01X23500Y20500D03*
G01X24500Y20500D03*
G01X25500Y20500D03*
G01X26500Y20500D03*
G01X27500Y20500D03*
G01X28500Y20500D03*
G01X29500Y20500D03*
G01X32500Y20500D03*
G01X33500Y20500D03*
G01X34500Y20500D03*
G01X35500Y20500D03*
G01X36500Y20500D03*
G01X37500Y20500D03*
G01X38500Y20500D03*
G01X39500Y20500D03*
G01X22500Y19500D03*
G01X23500Y19500D03*
G01X24500Y19500D03*
G01X25500Y19500D03*
G01X26500Y19500D03*
G01X27500Y19500D03*
G01X28500Y19500D03*
G01X29500Y19500D03*
G01X32500Y19500D03*
G01X33500Y19500D03*
G01X34500Y19500D03*
G01X35500Y19500D03*
G01X36500Y19500D03*
G01X37500Y19500D03*
G01X38500Y19500D03*
G01X39500Y19500D03*
G01X22500Y18500D03*
G01X23500Y18500D03*
G01X24500Y18500D03*
G01X25500Y18500D03*
G01X26500Y18500D03*
G01X27500Y18500D03*
G01X28500Y18500D03*
G01X29500Y18500D03*
G01X32500Y18500D03*
G01X33500Y18500D03*
G01X34500Y18500D03*
G01X35500Y18500D03*
G01X36500Y18500D03*
G01X37500Y18500D03*
G01X38500Y18500D03*
G01X39500Y18500D03*
G01X22500Y17500D03*
G01X23500Y17500D03*
G01X24500Y17500D03*
G01X25500Y17500D03*
G01X26500Y17500D03*
G01X27500Y17500D03*
G01X28500Y17500D03*
G01X29500Y17500D03*
G01X32500Y17500D03*
G01X33500Y17500D03*
G01X34500Y17500D03*
G01X35500Y17500D03*
G01X36500Y17500D03*
G01X37500Y17500D03*
G01X38500Y17500D03*
G01X39500Y17500D03*
G01X22500Y16500D03*
G01X23500Y16500D03*
G01X24500Y16500D03*
G01X25500Y16500D03*
G01X26500Y16500D03*
G01X27500Y16500D03*
G01X28500Y16500D03*
G01X29500Y16500D03*
G01X32500Y16500D03*
G01X33500Y16500D03*
G01X34500Y16500D03*
G01X35500Y16500D03*
G01X36500Y16500D03*
G01X37500Y16500D03*
G01X38500Y16500D03*
G01X39500Y16500D03*
G01X22500Y15500D03*
G01X23500Y15500D03*
G01X24500Y15500D03*
G01X25500Y15500D03*
G01X26500Y15500D03*
G01X27500Y15500D03*
G01X28500Y15500D03*
G01X29500Y15500D03*
G01X32500Y15500D03*
G01X33500Y15500D03*
G01X34500Y15500D03*
G01X35500Y15500D03*
G01X36500Y15500D03*
G01X37500Y15500D03*
G01X38500Y15500D03*
G01X39500Y15500D03*
G01X22500Y14500D03*
G01X23500Y14500D03*
G01X24500Y14500D03*
G01X25500Y14500D03*
G01X26500Y14500D03*
G01X27500Y14500D03*
G01X28500Y14500D03*
G01X29500Y14500D03*
G01X32500Y14500D03*
G01X33500Y14500D03*
G01X34500Y14500D03*
G01X35500Y14500D03*
G01X36500Y14500D03*
G01X37500Y14500D03*
G01X38500Y14500D03*
G01X39500Y14500D03*
G01X22500Y13500D03*
G01X23500Y13500D03*
G01X24500Y13500D03*
G01X25500Y13500D03*
G01X26500Y13500D03*
G01X27500Y13500D03*
G01X28500Y13500D03*
G01X29500Y13500D03*
G01X32500Y13500D03*
G01X33500Y13500D03*
G01X34500Y13500D03*
G01X35500Y13500D03*
G01X36500Y13500D03*
G01X37500Y13500D03*
G01X38500Y13500D03*
G01X39500Y13500D03*
G01X22500Y12500D03*
G01X23500Y12500D03*
G01X24500Y12500D03*
G01X25500Y12500D03*
G01X26500Y12500D03*
G01X27500Y12500D03*
G01X28500Y12500D03*
G01X29500Y12500D03*
G01X32500Y12500D03*
G01X33500Y12500D03*
G01X34500Y12500D03*
G01X35500Y12500D03*
G01X36500Y12500D03*
G01X37500Y12500D03*
G01X38500Y12500D03*
G01X39500Y12500D03*
G01X22500Y11500D03*
G01X23500Y11500D03*
G01X24500Y11500D03*
G01X25500Y11500D03*
G01X26500Y11500D03*
G01X27500Y11500D03*
G01X28500Y11500D03*
G01X29500Y11500D03*
G01X32500Y11500D03*
G01X33500Y11500D03*
G01X34500Y11500D03*
G01X35500Y11500D03*
G01X36500Y11500D03*
G01X37500Y11500D03*
G01X38500Y11500D03*
G01X39500Y11500D03*
G01X22500Y10500D03*
G01X23500Y10500D03*
G01X24500Y10500D03*
G01X25500Y10500D03*
G01X26500Y10500D03*
G01X27500Y10500D03*
G01X28500Y10500D03*
G01X29500Y10500D03*
G01X32500Y10500D03*
G01X33500Y10500D03*
G01X34500Y10500D03*
G01X35500Y10500D03*
G01X36500Y10500D03*
G01X37500Y10500D03*
G01X38500Y10500D03*
G01X39500Y10500D03*
G01X22500Y9500D03*
G01X23500Y9500D03*
G01X24500Y9500D03*
G01X25500Y9500D03*
G01X26500Y9500D03*
G01X27500Y9500D03*
G01X28500Y9500D03*
G01X29500Y9500D03*
G01X32500Y9500D03*
G01X33500Y9500D03*
G01X34500Y9500D03*
G01X35500Y9500D03*
G01X36500Y9500D03*
G01X37500Y9500D03*
G01X38500Y9500D03*
G01X39500Y9500D03*
G01X22500Y8500D03*
G01X23500Y8500D03*
G01X24500Y8500D03*
G01X25500Y8500D03*
G01X26500Y8500D03*
G01X27500Y8500D03*
G01X28500Y8500D03*
G01X29500Y8500D03*
G01X32500Y8500D03*
G01X33500Y8500D03*
G01X34500Y8500D03*
G01X35500Y8500D03*
G01X36500Y8500D03*
G01X37500Y8500D03*
G01X38500Y8500D03*
G01X39500Y8500D03*
G01X22500Y7500D03*
G01X23500Y7500D03*
G01X24500Y7500D03*
G01X25500Y7500D03*
G01X26500Y7500D03*
G01X27500Y7500D03*
G01X28500Y7500D03*
G01X29500Y7500D03*
G01X32500Y7500D03*
G01X33500Y7500D03*
G01X34500Y7500D03*
G01X35500Y7500D03*
G01X36500Y7500D03*
G01X37500Y7500D03*
G01X38500Y7500D03*
G01X39500Y7500D03*
G01X22500Y6500D03*
G01X23500Y6500D03*
G01X24500Y6500D03*
G01X25500Y6500D03*
G01X26500Y6500D03*
G01X27500Y6500D03*
G01X28500Y6500D03*
G01X29500Y6500D03*
G01X32500Y6500D03*
G01X33500Y6500D03*
G01X34500Y6500D03*
G01X35500Y6500D03*
G01X36500Y6500D03*
G01X37500Y6500D03*
G01X38500Y6500D03*
G01X39500Y6500D03*
G01X22500Y5500D03*
G01X23500Y5500D03*
G01X24500Y5500D03*
G01X25500Y5500D03*
G01X26500Y5500D03*
G01X27500Y5500D03*
G01X28500Y5500D03*
G01X29500Y5500D03*
G01X32500Y5500D03*
G01X33500Y5500D03*
G01X34500Y5500D03*
G01X35500Y5500D03*
G01X36500Y5500D03*
G01X37500Y5500D03*
G01X38500Y5500D03*
G01X39500Y5500D03*
G01X22500Y4500D03*
G01X23500Y4500D03*
G01X24500Y4500D03*
G01X25500Y4500D03*
G01X26500Y4500D03*
G01X27500Y4500D03*
G01X28500Y4500D03*
G01X29500Y4500D03*
G01X32500Y4500D03*
G01X33500Y4500D03*
G01X34500Y4500D03*
G01X35500Y4500D03*
G01X36500Y4500D03*
G01X37500Y4500D03*
G01X38500Y4500D03*
G01X39500Y4500D03*
G01X22500Y3500D03*
G01X23500Y3500D03*
G01X24500Y3500D03*
G01X25500Y3500D03*
G01X26500Y3500D03*
G01X27500Y3500D03*
G01X28500Y3500D03*
G01X29500Y3500D03*
G01X32500Y3500D03*
G01X33500Y3500D03*
G01X34500Y3500D03*
G01X35500Y3500D03*
G01X36500Y3500D03*
G01X37500Y3500D03*
G01X38500Y3500D03*
G01X39500Y3500D03*
G01X22500Y2500D03*
G01X23500Y2500D03*
G01X24500Y2500D03*
G01X25500Y2500D03*
G01X26500Y2500D03*
G01X27500Y2500D03*
G01X28500Y2500D03*
G01X29500Y2500D03*
G01X32500Y2500D03*
G01X33500Y2500D03*
G01X34500Y2500D03*
G01X35500Y2500D03*
G01X36500Y2500D03*
G01X37500Y2500D03*
G01X38500Y2500D03*
G01X39500Y2500D03*
G01X22500Y1500D03*
G01X23500Y1500D03*
G01X24500Y1500D03*
G01X25500Y1500D03*
G01X26500Y1500D03*
G01X27500Y1500D03*
G01X28500Y1500D03*
G01X29500Y1500D03*
G01X32500Y1500D03*
G01X33500Y1500D03*
G01X34500Y1500D03*
G01X35500Y1500D03*
G01X36500Y1500D03*
G01X37500Y1500D03*
G01X38500Y1500D03*
G01X39500Y1500D03*
G01X42600Y22500D03*
G01X43600Y22500D03*
G01X44600Y22500D03*
G01X45600Y22500D03*
G01X46600Y22500D03*
G01X47600Y22500D03*
G01X48600Y22500D03*
G01X49600Y22500D03*
G01X52600Y22500D03*
G01X53600Y22500D03*
G01X54600Y22500D03*
G01X55600Y22500D03*
G01X56600Y22500D03*
G01X57600Y22500D03*
G01X58600Y22500D03*
G01X59600Y22500D03*
G01X42600Y21500D03*
G01X43600Y21500D03*
G01X44600Y21500D03*
G01X45600Y21500D03*
G01X46600Y21500D03*
G01X47600Y21500D03*
G01X48600Y21500D03*
G01X49600Y21500D03*
G01X52600Y21500D03*
G01X53600Y21500D03*
G01X54600Y21500D03*
G01X55600Y21500D03*
G01X56600Y21500D03*
G01X57600Y21500D03*
G01X58600Y21500D03*
G01X59600Y21500D03*
G01X42600Y20500D03*
G01X43600Y20500D03*
G01X44600Y20500D03*
G01X45600Y20500D03*
G01X46600Y20500D03*
G01X47600Y20500D03*
G01X48600Y20500D03*
G01X49600Y20500D03*
G01X52600Y20500D03*
G01X53600Y20500D03*
G01X54600Y20500D03*
G01X55600Y20500D03*
G01X56600Y20500D03*
G01X57600Y20500D03*
G01X58600Y20500D03*
G01X59600Y20500D03*
G01X42600Y19500D03*
G01X43600Y19500D03*
G01X44600Y19500D03*
G01X45600Y19500D03*
G01X46600Y19500D03*
G01X47600Y19500D03*
G01X48600Y19500D03*
G01X49600Y19500D03*
G01X52600Y19500D03*
G01X53600Y19500D03*
G01X54600Y19500D03*
G01X55600Y19500D03*
G01X56600Y19500D03*
G01X57600Y19500D03*
G01X58600Y19500D03*
G01X59600Y19500D03*
G01X42600Y18500D03*
G01X43600Y18500D03*
G01X44600Y18500D03*
G01X45600Y18500D03*
G01X46600Y18500D03*
G01X47600Y18500D03*
G01X48600Y18500D03*
G01X49600Y18500D03*
G01X52600Y18500D03*
G01X53600Y18500D03*
G01X54600Y18500D03*
G01X55600Y18500D03*
G01X56600Y18500D03*
G01X57600Y18500D03*
G01X58600Y18500D03*
G01X59600Y18500D03*
G01X42600Y17500D03*
G01X43600Y17500D03*
G01X44600Y17500D03*
G01X45600Y17500D03*
G01X46600Y17500D03*
G01X47600Y17500D03*
G01X48600Y17500D03*
G01X49600Y17500D03*
G01X52600Y17500D03*
G01X53600Y17500D03*
G01X54600Y17500D03*
G01X55600Y17500D03*
G01X56600Y17500D03*
G01X57600Y17500D03*
G01X58600Y17500D03*
G01X59600Y17500D03*
G01X42600Y16500D03*
G01X43600Y16500D03*
G01X44600Y16500D03*
G01X45600Y16500D03*
G01X46600Y16500D03*
G01X47600Y16500D03*
G01X48600Y16500D03*
G01X49600Y16500D03*
G01X52600Y16500D03*
G01X53600Y16500D03*
G01X54600Y16500D03*
G01X55600Y16500D03*
G01X56600Y16500D03*
G01X57600Y16500D03*
G01X58600Y16500D03*
G01X59600Y16500D03*
G01X42600Y15500D03*
G01X43600Y15500D03*
G01X44600Y15500D03*
G01X45600Y15500D03*
G01X46600Y15500D03*
G01X47600Y15500D03*
G01X48600Y15500D03*
G01X49600Y15500D03*
G01X52600Y15500D03*
G01X53600Y15500D03*
G01X54600Y15500D03*
G01X55600Y15500D03*
G01X56600Y15500D03*
G01X57600Y15500D03*
G01X58600Y15500D03*
G01X59600Y15500D03*
G01X42600Y14500D03*
G01X43600Y14500D03*
G01X44600Y14500D03*
G01X45600Y14500D03*
G01X46600Y14500D03*
G01X47600Y14500D03*
G01X48600Y14500D03*
G01X49600Y14500D03*
G01X52600Y14500D03*
G01X53600Y14500D03*
G01X54600Y14500D03*
G01X55600Y14500D03*
G01X56600Y14500D03*
G01X57600Y14500D03*
G01X58600Y14500D03*
G01X59600Y14500D03*
G01X42600Y13500D03*
G01X43600Y13500D03*
G01X44600Y13500D03*
G01X45600Y13500D03*
G01X46600Y13500D03*
G01X47600Y13500D03*
G01X48600Y13500D03*
G01X49600Y13500D03*
G01X52600Y13500D03*
G01X53600Y13500D03*
G01X54600Y13500D03*
G01X55600Y13500D03*
G01X56600Y13500D03*
G01X57600Y13500D03*
G01X58600Y13500D03*
G01X59600Y13500D03*
G01X42600Y12500D03*
G01X43600Y12500D03*
G01X44600Y12500D03*
G01X45600Y12500D03*
G01X46600Y12500D03*
G01X47600Y12500D03*
G01X48600Y12500D03*
G01X49600Y12500D03*
G01X52600Y12500D03*
G01X53600Y12500D03*
G01X54600Y12500D03*
G01X55600Y12500D03*
G01X56600Y12500D03*
G01X57600Y12500D03*
G01X58600Y12500D03*
G01X59600Y12500D03*
G01X42600Y11500D03*
G01X43600Y11500D03*
G01X44600Y11500D03*
G01X45600Y11500D03*
G01X46600Y11500D03*
G01X47600Y11500D03*
G01X48600Y11500D03*
G01X49600Y11500D03*
G01X52600Y11500D03*
G01X53600Y11500D03*
G01X54600Y11500D03*
G01X55600Y11500D03*
G01X56600Y11500D03*
G01X57600Y11500D03*
G01X58600Y11500D03*
G01X59600Y11500D03*
G01X42600Y10500D03*
G01X43600Y10500D03*
G01X44600Y10500D03*
G01X45600Y10500D03*
G01X46600Y10500D03*
G01X47600Y10500D03*
G01X48600Y10500D03*
G01X49600Y10500D03*
G01X52600Y10500D03*
G01X53600Y10500D03*
G01X54600Y10500D03*
G01X55600Y10500D03*
G01X56600Y10500D03*
G01X57600Y10500D03*
G01X58600Y10500D03*
G01X59600Y10500D03*
G01X42600Y9500D03*
G01X43600Y9500D03*
G01X44600Y9500D03*
G01X45600Y9500D03*
G01X46600Y9500D03*
G01X47600Y9500D03*
G01X48600Y9500D03*
G01X49600Y9500D03*
G01X52600Y9500D03*
G01X53600Y9500D03*
G01X54600Y9500D03*
G01X55600Y9500D03*
G01X56600Y9500D03*
G01X57600Y9500D03*
G01X58600Y9500D03*
G01X59600Y9500D03*
G01X42600Y8500D03*
G01X43600Y8500D03*
G01X44600Y8500D03*
G01X45600Y8500D03*
G01X46600Y8500D03*
G01X47600Y8500D03*
G01X48600Y8500D03*
G01X49600Y8500D03*
G01X52600Y8500D03*
G01X53600Y8500D03*
G01X54600Y8500D03*
G01X55600Y8500D03*
G01X56600Y8500D03*
G01X57600Y8500D03*
G01X58600Y8500D03*
G01X59600Y8500D03*
G01X42600Y7500D03*
G01X43600Y7500D03*
G01X44600Y7500D03*
G01X45600Y7500D03*
G01X46600Y7500D03*
G01X47600Y7500D03*
G01X48600Y7500D03*
G01X49600Y7500D03*
G01X52600Y7500D03*
G01X53600Y7500D03*
G01X54600Y7500D03*
G01X55600Y7500D03*
G01X56600Y7500D03*
G01X57600Y7500D03*
G01X58600Y7500D03*
G01X59600Y7500D03*
G01X42600Y6500D03*
G01X43600Y6500D03*
G01X44600Y6500D03*
G01X45600Y6500D03*
G01X46600Y6500D03*
G01X47600Y6500D03*
G01X48600Y6500D03*
G01X49600Y6500D03*
G01X52600Y6500D03*
G01X53600Y6500D03*
G01X54600Y6500D03*
G01X55600Y6500D03*
G01X56600Y6500D03*
G01X57600Y6500D03*
G01X58600Y6500D03*
G01X59600Y6500D03*
G01X42600Y5500D03*
G01X43600Y5500D03*
G01X44600Y5500D03*
G01X45600Y5500D03*
G01X46600Y5500D03*
G01X47600Y5500D03*
G01X48600Y5500D03*
G01X49600Y5500D03*
G01X52600Y5500D03*
G01X53600Y5500D03*
G01X54600Y5500D03*
G01X55600Y5500D03*
G01X56600Y5500D03*
G01X57600Y5500D03*
G01X58600Y5500D03*
G01X59600Y5500D03*
G01X42600Y4500D03*
G01X43600Y4500D03*
G01X44600Y4500D03*
G01X45600Y4500D03*
G01X46600Y4500D03*
G01X47600Y4500D03*
G01X48600Y4500D03*
G01X49600Y4500D03*
G01X52600Y4500D03*
G01X53600Y4500D03*
G01X54600Y4500D03*
G01X55600Y4500D03*
G01X56600Y4500D03*
G01X57600Y4500D03*
G01X58600Y4500D03*
G01X59600Y4500D03*
G01X42600Y3500D03*
G01X43600Y3500D03*
G01X44600Y3500D03*
G01X45600Y3500D03*
G01X46600Y3500D03*
G01X47600Y3500D03*
G01X48600Y3500D03*
G01X49600Y3500D03*
G01X52600Y3500D03*
G01X53600Y3500D03*
G01X54600Y3500D03*
G01X55600Y3500D03*
G01X56600Y3500D03*
G01X57600Y3500D03*
G01X58600Y3500D03*
G01X59600Y3500D03*
G01X42600Y2500D03*
G01X43600Y2500D03*
G01X44600Y2500D03*
G01X45600Y2500D03*
G01X46600Y2500D03*
G01X47600Y2500D03*
G01X48600Y2500D03*
G01X49600Y2500D03*
G01X52600Y2500D03*
G01X53600Y2500D03*
G01X54600Y2500D03*
G01X55600Y2500D03*
G01X56600Y2500D03*
G01X57600Y2500D03*
G01X58600Y2500D03*
G01X59600Y2500D03*
G01X42600Y1500D03*
G01X43600Y1500D03*
G01X44600Y1500D03*
G01X45600Y1500D03*
G01X46600Y1500D03*
G01X47600Y1500D03*
G01X48600Y1500D03*
G01X49600Y1500D03*
G01X52600Y1500D03*
G01X53600Y1500D03*
G01X54600Y1500D03*
G01X55600Y1500D03*
G01X56600Y1500D03*
G01X57600Y1500D03*
G01X58600Y1500D03*
G01X59600Y1500D03*
G01X13500Y12500D03*
G01X13500Y11500D03*
G01X13500Y10500D03*
G01X13500Y9500D03*
G01X13500Y8500D03*
G01X13500Y7500D03*
G01X13500Y6500D03*
G01X13500Y5500D03*
G01X13500Y4500D03*
G01X13500Y3500D03*
G01X13500Y2500D03*
G01X13500Y1500D03*
G01X11500Y12500D03*
G01X11500Y10500D03*
G01X11500Y8500D03*
G01X11500Y6500D03*
G01X11500Y4500D03*
G01X11500Y2500D03*
G01X6500Y12500D03*
G01X6500Y10500D03*
G01X6500Y8500D03*
G01X6500Y6500D03*
G01X6500Y4500D03*
G01X6500Y2500D03*
G01X5500Y12500D03*
G01X5500Y10500D03*
G01X5500Y8500D03*
G01X5500Y6500D03*
G01X5500Y4500D03*
G01X5500Y2500D03*
G01X500Y12500D03*
G01X500Y10500D03*
G01X500Y8500D03*
G01X500Y6500D03*
G01X500Y4500D03*
G01X500Y2500D03*
G01X30500Y22500D03*
G01X31500Y22500D03*
G01X30500Y21500D03*
G01X31500Y21500D03*
G01X30500Y20500D03*
G01X31500Y20500D03*
G01X30500Y19500D03*
G01X31500Y19500D03*
G01X30500Y18500D03*
G01X31500Y18500D03*
G01X30500Y17500D03*
G01X31500Y17500D03*
G01X30500Y16500D03*
G01X31500Y16500D03*
G01X30500Y15500D03*
G01X31500Y15500D03*
G01X30500Y14500D03*
G01X31500Y14500D03*
G01X30500Y13500D03*
G01X31500Y13500D03*
G01X30500Y12500D03*
G01X31500Y12500D03*
G01X30500Y11500D03*
G01X31500Y11500D03*
G01X30500Y10500D03*
G01X31500Y10500D03*
G01X30500Y9500D03*
G01X31500Y9500D03*
G01X30500Y8500D03*
G01X31500Y8500D03*
G01X30500Y7500D03*
G01X31500Y7500D03*
G01X30500Y6500D03*
G01X31500Y6500D03*
G01X30500Y5500D03*
G01X31500Y5500D03*
G01X30500Y4500D03*
G01X31500Y4500D03*
G01X30500Y3500D03*
G01X31500Y3500D03*
G01X30500Y2500D03*
G01X31500Y2500D03*
G01X30500Y1500D03*
G01X31500Y1500D03*
G01X50600Y22500D03*
G01X51600Y22500D03*
G01X50600Y21500D03*
G01X51600Y21500D03*
G01X50600Y20500D03*
G01X51600Y20500D03*
G01X50600Y19500D03*
G01X51600Y19500D03*
G01X50600Y18500D03*
G01X51600Y18500D03*
G01X50600Y17500D03*
G01X51600Y17500D03*
G01X50600Y16500D03*
G01X51600Y16500D03*
G01X50600Y15500D03*
G01X51600Y15500D03*
G01X50600Y14500D03*
G01X51600Y14500D03*
G01X50600Y13500D03*
G01X51600Y13500D03*
G01X50600Y12500D03*
G01X51600Y12500D03*
G01X50600Y11500D03*
G01X51600Y11500D03*
G01X50600Y10500D03*
G01X51600Y10500D03*
G01X50600Y9500D03*
G01X51600Y9500D03*
G01X50600Y8500D03*
G01X51600Y8500D03*
G01X50600Y7500D03*
G01X51600Y7500D03*
G01X50600Y6500D03*
G01X51600Y6500D03*
G01X50600Y5500D03*
G01X51600Y5500D03*
G01X50600Y4500D03*
G01X51600Y4500D03*
G01X50600Y3500D03*
G01X51600Y3500D03*
G01X50600Y2500D03*
G01X51600Y2500D03*
G01X50600Y1500D03*
G01X51600Y1500D03*
G01X19500Y12500D03*
G01X20500Y12500D03*
G01X21500Y12500D03*
G01X19500Y11500D03*
G01X20500Y11500D03*
G01X21500Y11500D03*
G01X19500Y10500D03*
G01X20500Y10500D03*
G01X21500Y10500D03*
G01X19500Y9500D03*
G01X20500Y9500D03*
G01X21500Y9500D03*
G01X19500Y8500D03*
G01X20500Y8500D03*
G01X21500Y8500D03*
G01X19500Y7500D03*
G01X20500Y7500D03*
G01X21500Y7500D03*
G01X19500Y6500D03*
G01X20500Y6500D03*
G01X21500Y6500D03*
G01X19500Y5500D03*
G01X20500Y5500D03*
G01X21500Y5500D03*
G01X19500Y4500D03*
G01X20500Y4500D03*
G01X21500Y4500D03*
G01X19500Y3500D03*
G01X20500Y3500D03*
G01X21500Y3500D03*
G01X19500Y2500D03*
G01X20500Y2500D03*
G01X21500Y2500D03*
G01X19500Y1500D03*
G01X20500Y1500D03*
G01X21500Y1500D03*
G54D12*
G01X13500Y15500D03*
G01X14500Y15500D03*
G01X15500Y15500D03*
G01X16500Y15500D03*
G01X17500Y15500D03*
G01X18500Y15500D03*
G01X19500Y15500D03*
G01X20500Y15500D03*
G01X20500Y21500D03*
G01X19500Y21500D03*
G01X18500Y21500D03*
G01X17500Y21500D03*
G01X16500Y21500D03*
G01X15500Y21500D03*
G01X14500Y21500D03*
G01X13500Y21500D03*
G01X10500Y21500D03*
G01X9500Y21500D03*
G01X8500Y21500D03*
G01X7500Y21500D03*
G01X6500Y21500D03*
G01X5500Y21500D03*
G01X4500Y21500D03*
G01X3500Y21500D03*
G01X10500Y15500D03*
G01X9500Y15500D03*
G01X8500Y15500D03*
G01X7500Y15500D03*
G01X6500Y15500D03*
G01X5500Y15500D03*
G01X4500Y15500D03*
G01X3500Y15500D03*
G01X14500Y12500D03*
G01X14500Y11500D03*
G01X14500Y10500D03*
G01X14500Y9500D03*
G01X14500Y8500D03*
G01X14500Y7500D03*
G01X14500Y6500D03*
G01X14500Y5500D03*
G01X14500Y4500D03*
G01X14500Y3500D03*
G01X14500Y2500D03*
G01X14500Y1500D03*
G01X10500Y12500D03*
G01X10500Y10500D03*
G01X10500Y8500D03*
G01X10500Y6500D03*
G01X10500Y4500D03*
G01X10500Y2500D03*
G01X7500Y12500D03*
G01X7500Y10500D03*
G01X7500Y8500D03*
G01X7500Y6500D03*
G01X7500Y4500D03*
G01X7500Y2500D03*
G01X1500Y12500D03*
G01X1500Y10500D03*
G01X1500Y8500D03*
G01X1500Y6500D03*
G01X1500Y4500D03*
G01X1500Y2500D03*
G01X4500Y12500D03*
G01X4500Y10500D03*
G01X4500Y8500D03*
G01X4500Y6500D03*
G01X4500Y4500D03*
G01X4500Y2500D03*
M00*
M02*
