M48
; DRILL file {KiCad 5.99.0+really5.1.10+dfsg1-1+b1} date Thu Oct 14 18:20:42 2021
; FORMAT={-:-/ absolute / metric / decimal}
; #@! TF.CreationDate,2021-10-14T18:20:42+02:00
; #@! TF.GenerationSoftware,Kicad,Pcbnew,5.99.0+really5.1.10+dfsg1-1+b1
; #@! TF.FileFunction,Plated,1,2,PTH
FMAT,2
METRIC
T1C0.400
T2C0.762
T3C1.000
T4C1.118
T5C1.999
T6C2.000
%
G90
G05
T1
X78.636Y-83.848
X78.636Y-85.118
X80.16Y-83.848
X80.16Y-85.118
X81.43Y-83.848
X81.43Y-85.118
X82.446Y-83.848
X82.446Y-85.118
X83.716Y-83.848
X83.716Y-85.118
X84.986Y-83.848
X84.986Y-85.118
X86.256Y-83.848
X86.256Y-85.118
X87.526Y-83.848
X87.526Y-85.118
X103.02Y-81.308
X103.02Y-90.198
X104.29Y-81.308
X104.29Y-90.198
X105.56Y-81.308
X105.56Y-90.198
X106.83Y-81.308
X106.83Y-90.198
X113.18Y-81.308
X113.18Y-90.198
X114.45Y-81.308
X114.45Y-90.198
X115.72Y-81.308
X115.72Y-90.198
X116.99Y-81.308
X116.99Y-90.198
X120.8Y-80.038
X120.8Y-91.722
X123.34Y-81.308
X123.34Y-90.452
X125.88Y-80.038
X125.88Y-91.722
X128.42Y-80.038
X128.42Y-91.722
X130.96Y-81.308
X130.96Y-90.452
X133.5Y-80.038
X133.5Y-91.722
X136.04Y-80.038
X136.04Y-91.722
X138.58Y-81.308
X138.58Y-90.452
X141.12Y-80.038
X141.12Y-91.722
X150.264Y-83.34
X151.026Y-80.8
X151.026Y-85.88
X154.074Y-80.8
X154.074Y-85.88
X154.836Y-83.34
X157.122Y-93.5
X157.122Y-94.516
X157.122Y-98.58
X157.122Y-102.39
X157.122Y-103.66
X157.122Y-104.93
X157.122Y-105.946
X157.122Y-106.962
X157.122Y-107.978
X158.392Y-93.5
X158.392Y-94.516
X158.392Y-98.58
X158.392Y-102.39
X158.392Y-103.66
X158.392Y-104.93
X158.392Y-105.946
X158.392Y-106.962
X158.392Y-107.978
X160.424Y-83.34
X161.186Y-80.8
X161.186Y-85.88
X164.234Y-80.8
X164.234Y-85.88
X164.996Y-83.34
T2
X75.08Y-40.16
X75.08Y-42.7
X75.08Y-45.24
X75.08Y-47.78
X75.08Y-50.32
X75.08Y-52.86
X75.08Y-55.4
X75.08Y-57.94
X75.08Y-60.48
X75.08Y-63.02
X75.08Y-65.56
X75.08Y-68.1
X75.08Y-70.64
X75.08Y-73.18
X75.08Y-75.72
X75.08Y-78.26
X75.08Y-90.96
X75.08Y-93.5
X75.08Y-96.04
X75.08Y-98.58
X75.08Y-101.12
X75.08Y-103.66
X75.08Y-106.2
X75.08Y-108.74
X75.08Y-111.28
X75.08Y-113.82
X75.08Y-116.36
X75.08Y-118.9
X75.08Y-121.44
X77.62Y-40.16
X77.62Y-42.7
X77.62Y-45.24
X77.62Y-47.78
X77.62Y-50.32
X77.62Y-52.86
X77.62Y-55.4
X77.62Y-57.94
X77.62Y-60.48
X77.62Y-63.02
X77.62Y-65.56
X77.62Y-68.1
X77.62Y-70.64
X77.62Y-73.18
X77.62Y-75.72
X77.62Y-78.26
X77.62Y-90.96
X77.62Y-93.5
X77.62Y-96.04
X77.62Y-98.58
X77.62Y-101.12
X77.62Y-103.66
X77.62Y-106.2
X77.62Y-108.74
X77.62Y-111.28
X77.62Y-113.82
X77.62Y-116.36
X77.62Y-118.9
X77.62Y-121.44
X77.62Y-123.98
X80.16Y-32.54
X80.16Y-35.08
X80.16Y-37.62
X80.16Y-40.16
X80.16Y-42.7
X80.16Y-45.24
X80.16Y-47.78
X80.16Y-50.32
X80.16Y-52.86
X80.16Y-55.4
X80.16Y-57.94
X80.16Y-60.48
X80.16Y-63.02
X80.16Y-65.56
X80.16Y-68.1
X80.16Y-70.64
X80.16Y-73.18
X80.16Y-75.72
X80.16Y-78.26
X80.16Y-90.96
X80.16Y-93.5
X80.16Y-96.04
X80.16Y-98.58
X80.16Y-101.12
X80.16Y-103.66
X80.16Y-106.2
X80.16Y-108.74
X80.16Y-111.28
X80.16Y-113.82
X80.16Y-116.36
X82.7Y-32.54
X82.7Y-35.08
X82.7Y-37.62
X82.7Y-40.16
X82.7Y-42.7
X82.7Y-45.24
X82.7Y-47.78
X82.7Y-50.32
X82.7Y-52.86
X82.7Y-55.4
X82.7Y-57.94
X82.7Y-60.48
X82.7Y-63.02
X82.7Y-65.56
X82.7Y-68.1
X82.7Y-70.64
X82.7Y-73.18
X82.7Y-75.72
X82.7Y-78.26
X82.7Y-90.96
X82.7Y-93.5
X82.7Y-96.04
X82.7Y-98.58
X82.7Y-101.12
X82.7Y-103.66
X82.7Y-106.2
X82.7Y-108.74
X82.7Y-111.28
X82.7Y-113.82
X82.7Y-116.36
X85.24Y-32.54
X85.24Y-35.08
X85.24Y-37.62
X85.24Y-40.16
X85.24Y-42.7
X85.24Y-45.24
X85.24Y-47.78
X85.24Y-50.32
X85.24Y-52.86
X85.24Y-55.4
X85.24Y-57.94
X85.24Y-60.48
X85.24Y-63.02
X85.24Y-65.56
X85.24Y-68.1
X85.24Y-70.64
X85.24Y-73.18
X85.24Y-75.72
X85.24Y-78.26
X85.24Y-90.96
X85.24Y-93.5
X85.24Y-96.04
X85.24Y-98.58
X85.24Y-101.12
X85.24Y-103.66
X85.24Y-106.2
X85.24Y-108.74
X85.24Y-111.28
X85.24Y-113.82
X85.24Y-116.36
X87.78Y-32.54
X87.78Y-35.08
X87.78Y-37.62
X87.78Y-40.16
X87.78Y-42.7
X87.78Y-45.24
X87.78Y-47.78
X87.78Y-50.32
X87.78Y-52.86
X87.78Y-55.4
X87.78Y-57.94
X87.78Y-60.48
X87.78Y-63.02
X87.78Y-65.56
X87.78Y-68.1
X87.78Y-70.64
X87.78Y-73.18
X87.78Y-75.72
X87.78Y-78.26
X87.78Y-90.96
X87.78Y-93.5
X87.78Y-96.04
X87.78Y-98.58
X87.78Y-101.12
X87.78Y-103.66
X87.78Y-106.2
X87.78Y-108.74
X87.78Y-111.28
X87.78Y-113.82
X87.78Y-116.36
X90.32Y-32.54
X90.32Y-35.08
X90.32Y-37.62
X90.32Y-40.16
X90.32Y-42.7
X90.32Y-45.24
X90.32Y-47.78
X90.32Y-50.32
X90.32Y-52.86
X90.32Y-55.4
X90.32Y-57.94
X90.32Y-60.48
X90.32Y-63.02
X90.32Y-65.56
X90.32Y-68.1
X90.32Y-70.64
X90.32Y-73.18
X90.32Y-75.72
X90.32Y-78.26
X90.32Y-90.96
X90.32Y-93.5
X90.32Y-96.04
X90.32Y-98.58
X90.32Y-101.12
X90.32Y-103.66
X90.32Y-106.2
X90.32Y-108.74
X90.32Y-111.28
X90.32Y-113.82
X90.32Y-116.36
X92.86Y-32.54
X92.86Y-35.08
X92.86Y-37.62
X92.86Y-40.16
X92.86Y-42.7
X92.86Y-45.24
X92.86Y-47.78
X92.86Y-50.32
X92.86Y-52.86
X92.86Y-55.4
X92.86Y-57.94
X92.86Y-60.48
X92.86Y-63.02
X92.86Y-65.56
X92.86Y-68.1
X92.86Y-70.64
X92.86Y-73.18
X92.86Y-75.72
X92.86Y-78.26
X92.86Y-90.96
X92.86Y-93.5
X92.86Y-96.04
X92.86Y-98.58
X92.86Y-101.12
X92.86Y-103.66
X92.86Y-106.2
X92.86Y-108.74
X92.86Y-111.28
X92.86Y-113.82
X92.86Y-116.36
X97.94Y-121.44
X97.94Y-123.98
X97.94Y-126.52
X100.48Y-32.54
X100.48Y-35.08
X100.48Y-37.62
X100.48Y-40.16
X100.48Y-42.7
X100.48Y-45.24
X100.48Y-47.78
X100.48Y-50.32
X100.48Y-52.86
X100.48Y-55.4
X100.48Y-57.94
X100.48Y-60.48
X100.48Y-63.02
X100.48Y-65.56
X100.48Y-68.1
X100.48Y-70.64
X100.48Y-73.18
X100.48Y-75.72
X100.48Y-78.26
X100.48Y-93.5
X100.48Y-96.04
X100.48Y-98.58
X100.48Y-101.12
X100.48Y-103.66
X100.48Y-106.2
X100.48Y-108.74
X100.48Y-111.28
X100.48Y-113.82
X100.48Y-116.36
X100.48Y-118.9
X100.48Y-121.44
X100.48Y-123.98
X100.48Y-126.52
X103.02Y-32.54
X103.02Y-35.08
X103.02Y-37.62
X103.02Y-40.16
X103.02Y-42.7
X103.02Y-45.24
X103.02Y-47.78
X103.02Y-50.32
X103.02Y-52.86
X103.02Y-55.4
X103.02Y-57.94
X103.02Y-60.48
X103.02Y-63.02
X103.02Y-65.56
X103.02Y-68.1
X103.02Y-70.64
X103.02Y-73.18
X103.02Y-75.72
X103.02Y-78.26
X103.02Y-93.5
X103.02Y-96.04
X103.02Y-98.58
X103.02Y-101.12
X103.02Y-103.66
X103.02Y-106.2
X103.02Y-108.74
X103.02Y-111.28
X103.02Y-113.82
X103.02Y-116.36
X103.02Y-118.9
X103.02Y-121.44
X103.02Y-123.98
X103.02Y-126.52
X105.56Y-32.54
X105.56Y-35.08
X105.56Y-37.62
X105.56Y-40.16
X105.56Y-42.7
X105.56Y-45.24
X105.56Y-47.78
X105.56Y-50.32
X105.56Y-52.86
X105.56Y-55.4
X105.56Y-57.94
X105.56Y-60.48
X105.56Y-63.02
X105.56Y-65.56
X105.56Y-68.1
X105.56Y-70.64
X105.56Y-73.18
X105.56Y-75.72
X105.56Y-78.26
X105.56Y-93.5
X105.56Y-96.04
X105.56Y-98.58
X105.56Y-101.12
X105.56Y-103.66
X105.56Y-106.2
X105.56Y-108.74
X105.56Y-111.28
X105.56Y-113.82
X105.56Y-116.36
X105.56Y-118.9
X105.56Y-121.44
X105.56Y-123.98
X105.56Y-126.52
X108.1Y-32.54
X108.1Y-35.08
X108.1Y-37.62
X108.1Y-40.16
X108.1Y-42.7
X108.1Y-45.24
X108.1Y-47.78
X108.1Y-50.32
X108.1Y-52.86
X108.1Y-55.4
X108.1Y-57.94
X108.1Y-60.48
X108.1Y-63.02
X108.1Y-65.56
X108.1Y-68.1
X108.1Y-70.64
X108.1Y-73.18
X108.1Y-75.72
X108.1Y-78.26
X108.1Y-93.5
X108.1Y-96.04
X108.1Y-98.58
X108.1Y-101.12
X108.1Y-103.66
X108.1Y-106.2
X108.1Y-108.74
X108.1Y-111.28
X108.1Y-113.82
X108.1Y-116.36
X108.1Y-118.9
X108.1Y-121.44
X108.1Y-123.98
X108.1Y-126.52
X110.64Y-32.54
X110.64Y-35.08
X110.64Y-37.62
X110.64Y-40.16
X110.64Y-42.7
X110.64Y-45.24
X110.64Y-47.78
X110.64Y-50.32
X110.64Y-52.86
X110.64Y-55.4
X110.64Y-57.94
X110.64Y-60.48
X110.64Y-63.02
X110.64Y-65.56
X110.64Y-68.1
X110.64Y-70.64
X110.64Y-73.18
X110.64Y-75.72
X110.64Y-78.26
X110.64Y-93.5
X110.64Y-96.04
X110.64Y-98.58
X110.64Y-101.12
X110.64Y-103.66
X110.64Y-106.2
X110.64Y-108.74
X110.64Y-111.28
X110.64Y-113.82
X110.64Y-116.36
X110.64Y-118.9
X110.64Y-121.44
X110.64Y-123.98
X110.64Y-126.52
X113.18Y-32.54
X113.18Y-35.08
X113.18Y-37.62
X113.18Y-40.16
X113.18Y-42.7
X113.18Y-45.24
X113.18Y-47.78
X113.18Y-50.32
X113.18Y-52.86
X113.18Y-55.4
X113.18Y-57.94
X113.18Y-60.48
X113.18Y-63.02
X113.18Y-65.56
X113.18Y-68.1
X113.18Y-70.64
X113.18Y-73.18
X113.18Y-75.72
X113.18Y-78.26
X113.18Y-93.5
X113.18Y-96.04
X113.18Y-98.58
X113.18Y-101.12
X113.18Y-103.66
X113.18Y-106.2
X113.18Y-108.74
X113.18Y-111.28
X113.18Y-113.82
X113.18Y-116.36
X115.72Y-32.54
X115.72Y-35.08
X115.72Y-37.62
X115.72Y-40.16
X115.72Y-42.7
X115.72Y-45.24
X115.72Y-47.78
X115.72Y-50.32
X115.72Y-52.86
X115.72Y-55.4
X115.72Y-57.94
X115.72Y-60.48
X115.72Y-63.02
X115.72Y-65.56
X115.72Y-68.1
X115.72Y-70.64
X115.72Y-73.18
X115.72Y-75.72
X115.72Y-78.26
X115.72Y-93.5
X115.72Y-96.04
X115.72Y-98.58
X115.72Y-101.12
X115.72Y-103.66
X115.72Y-106.2
X115.72Y-108.74
X115.72Y-111.28
X115.72Y-113.82
X115.72Y-116.36
X118.26Y-32.54
X118.26Y-35.08
X118.26Y-37.62
X118.26Y-40.16
X118.26Y-42.7
X118.26Y-45.24
X118.26Y-47.78
X118.26Y-50.32
X118.26Y-52.86
X118.26Y-55.4
X118.26Y-57.94
X118.26Y-60.48
X118.26Y-63.02
X118.26Y-65.56
X118.26Y-68.1
X118.26Y-70.64
X118.26Y-73.18
X118.26Y-75.72
X118.26Y-78.26
X118.26Y-93.5
X118.26Y-96.04
X118.26Y-98.58
X118.26Y-101.12
X118.26Y-103.66
X118.26Y-106.2
X118.26Y-108.74
X118.26Y-111.28
X118.26Y-113.82
X118.26Y-116.36
X120.8Y-75.72
X120.8Y-78.26
X120.8Y-93.5
X120.8Y-96.04
X120.8Y-98.58
X120.8Y-101.12
X120.8Y-103.66
X120.8Y-106.2
X120.8Y-108.74
X120.8Y-111.28
X120.8Y-113.82
X120.8Y-116.36
X123.34Y-75.72
X123.34Y-78.26
X123.34Y-93.5
X123.34Y-96.04
X123.34Y-98.58
X123.34Y-101.12
X123.34Y-103.66
X123.34Y-106.2
X123.34Y-108.74
X123.34Y-111.28
X123.34Y-113.82
X123.34Y-116.36
X125.88Y-32.54
X125.88Y-35.08
X125.88Y-37.62
X125.88Y-40.16
X125.88Y-42.7
X125.88Y-45.24
X125.88Y-47.78
X125.88Y-50.32
X125.88Y-52.86
X125.88Y-55.4
X125.88Y-57.94
X125.88Y-60.48
X125.88Y-63.02
X125.88Y-65.56
X125.88Y-68.1
X125.88Y-70.64
X125.88Y-73.18
X125.88Y-75.72
X125.88Y-78.26
X125.88Y-93.5
X125.88Y-96.04
X125.88Y-98.58
X125.88Y-101.12
X125.88Y-103.66
X125.88Y-106.2
X125.88Y-108.74
X125.88Y-111.28
X125.88Y-113.82
X125.88Y-116.36
X128.42Y-32.54
X128.42Y-35.08
X128.42Y-37.62
X128.42Y-40.16
X128.42Y-42.7
X128.42Y-45.24
X128.42Y-47.78
X128.42Y-50.32
X128.42Y-52.86
X128.42Y-55.4
X128.42Y-57.94
X128.42Y-60.48
X128.42Y-63.02
X128.42Y-65.56
X128.42Y-68.1
X128.42Y-70.64
X128.42Y-73.18
X128.42Y-75.72
X128.42Y-78.26
X128.42Y-93.5
X128.42Y-96.04
X128.42Y-98.58
X128.42Y-101.12
X128.42Y-103.66
X128.42Y-106.2
X128.42Y-108.74
X128.42Y-111.28
X128.42Y-113.82
X128.42Y-116.36
X130.96Y-32.54
X130.96Y-35.08
X130.96Y-37.62
X130.96Y-40.16
X130.96Y-42.7
X130.96Y-45.24
X130.96Y-47.78
X130.96Y-50.32
X130.96Y-52.86
X130.96Y-55.4
X130.96Y-57.94
X130.96Y-60.48
X130.96Y-63.02
X130.96Y-65.56
X130.96Y-68.1
X130.96Y-70.64
X130.96Y-73.18
X130.96Y-75.72
X130.96Y-78.26
X130.96Y-93.5
X130.96Y-96.04
X130.96Y-98.58
X130.96Y-101.12
X130.96Y-103.66
X130.96Y-106.2
X130.96Y-108.74
X130.96Y-111.28
X130.96Y-113.82
X130.96Y-116.36
X133.5Y-32.54
X133.5Y-35.08
X133.5Y-37.62
X133.5Y-40.16
X133.5Y-42.7
X133.5Y-45.24
X133.5Y-47.78
X133.5Y-50.32
X133.5Y-52.86
X133.5Y-55.4
X133.5Y-57.94
X133.5Y-60.48
X133.5Y-63.02
X133.5Y-65.56
X133.5Y-68.1
X133.5Y-70.64
X133.5Y-73.18
X133.5Y-75.72
X133.5Y-78.26
X133.5Y-93.5
X133.5Y-96.04
X133.5Y-98.58
X133.5Y-101.12
X133.5Y-103.66
X133.5Y-106.2
X133.5Y-108.74
X133.5Y-111.28
X133.5Y-113.82
X133.5Y-116.36
X136.04Y-32.54
X136.04Y-35.08
X136.04Y-37.62
X136.04Y-40.16
X136.04Y-42.7
X136.04Y-45.24
X136.04Y-47.78
X136.04Y-50.32
X136.04Y-52.86
X136.04Y-55.4
X136.04Y-57.94
X136.04Y-60.48
X136.04Y-63.02
X136.04Y-65.56
X136.04Y-68.1
X136.04Y-70.64
X136.04Y-73.18
X136.04Y-75.72
X136.04Y-78.26
X136.04Y-93.5
X136.04Y-96.04
X136.04Y-98.58
X136.04Y-101.12
X136.04Y-103.66
X136.04Y-106.2
X136.04Y-108.74
X136.04Y-111.28
X136.04Y-113.82
X136.04Y-116.36
X138.58Y-32.54
X138.58Y-35.08
X138.58Y-37.62
X138.58Y-40.16
X138.58Y-42.7
X138.58Y-45.24
X138.58Y-47.78
X138.58Y-50.32
X138.58Y-52.86
X138.58Y-55.4
X138.58Y-57.94
X138.58Y-60.48
X138.58Y-63.02
X138.58Y-65.56
X138.58Y-68.1
X138.58Y-70.64
X138.58Y-73.18
X138.58Y-75.72
X138.58Y-78.26
X138.58Y-93.5
X138.58Y-96.04
X138.58Y-98.58
X138.58Y-101.12
X138.58Y-103.66
X138.58Y-106.2
X138.58Y-108.74
X138.58Y-111.28
X138.58Y-113.82
X138.58Y-116.36
X141.12Y-32.54
X141.12Y-35.08
X141.12Y-37.62
X141.12Y-40.16
X141.12Y-42.7
X141.12Y-45.24
X141.12Y-47.78
X141.12Y-50.32
X141.12Y-52.86
X141.12Y-55.4
X141.12Y-57.94
X141.12Y-60.48
X141.12Y-63.02
X141.12Y-65.56
X141.12Y-68.1
X141.12Y-70.64
X141.12Y-73.18
X141.12Y-75.72
X141.12Y-78.26
X141.12Y-93.5
X141.12Y-96.04
X141.12Y-98.58
X141.12Y-101.12
X141.12Y-103.66
X141.12Y-106.2
X141.12Y-108.74
X141.12Y-111.28
X141.12Y-113.82
X141.12Y-116.36
X148.74Y-32.54
X148.74Y-35.08
X148.74Y-37.62
X148.74Y-40.16
X148.74Y-42.7
X148.74Y-45.24
X148.74Y-47.78
X148.74Y-50.32
X148.74Y-52.86
X148.74Y-55.4
X148.74Y-57.94
X148.74Y-60.48
X148.74Y-63.02
X148.74Y-65.56
X148.74Y-68.1
X148.74Y-70.64
X148.74Y-73.18
X148.74Y-75.72
X148.74Y-78.26
X148.74Y-80.8
X148.74Y-83.34
X148.74Y-85.88
X148.74Y-93.5
X148.74Y-96.04
X148.74Y-98.58
X148.74Y-101.12
X148.74Y-103.66
X148.74Y-106.2
X148.74Y-108.74
X148.74Y-111.28
X148.74Y-113.82
X148.74Y-116.36
X148.74Y-118.9
X148.74Y-121.44
X148.74Y-123.98
X148.74Y-126.52
X151.28Y-32.54
X151.28Y-35.08
X151.28Y-37.62
X151.28Y-40.16
X151.28Y-42.7
X151.28Y-45.24
X151.28Y-47.78
X151.28Y-50.32
X151.28Y-52.86
X151.28Y-55.4
X151.28Y-57.94
X151.28Y-60.48
X151.28Y-63.02
X151.28Y-65.56
X151.28Y-68.1
X151.28Y-70.64
X151.28Y-73.18
X151.28Y-75.72
X151.28Y-78.26
X151.28Y-88.42
X151.28Y-90.96
X151.28Y-93.5
X151.28Y-96.04
X151.28Y-98.58
X151.28Y-101.12
X151.28Y-103.66
X151.28Y-106.2
X151.28Y-108.74
X151.28Y-111.28
X151.28Y-113.82
X151.28Y-116.36
X151.28Y-118.9
X151.28Y-121.44
X151.28Y-123.98
X151.28Y-126.52
X153.82Y-32.54
X153.82Y-35.08
X153.82Y-37.62
X153.82Y-40.16
X153.82Y-42.7
X153.82Y-45.24
X153.82Y-47.78
X153.82Y-50.32
X153.82Y-52.86
X153.82Y-55.4
X153.82Y-57.94
X153.82Y-60.48
X153.82Y-63.02
X153.82Y-65.56
X153.82Y-68.1
X153.82Y-70.64
X153.82Y-73.18
X153.82Y-75.72
X153.82Y-78.26
X153.82Y-88.42
X153.82Y-90.96
X153.82Y-116.36
X153.82Y-118.9
X153.82Y-121.44
X153.82Y-123.98
X153.82Y-126.52
X156.36Y-32.54
X156.36Y-35.08
X156.36Y-37.62
X156.36Y-40.16
X156.36Y-42.7
X156.36Y-45.24
X156.36Y-47.78
X156.36Y-50.32
X156.36Y-52.86
X156.36Y-55.4
X156.36Y-57.94
X156.36Y-60.48
X156.36Y-63.02
X156.36Y-65.56
X156.36Y-68.1
X156.36Y-70.64
X156.36Y-73.18
X156.36Y-75.72
X156.36Y-78.26
X156.36Y-80.8
X156.36Y-83.34
X156.36Y-85.88
X156.36Y-88.42
X156.36Y-90.96
X156.36Y-116.36
X156.36Y-118.9
X156.36Y-121.44
X156.36Y-123.98
X156.36Y-126.52
X158.9Y-32.54
X158.9Y-35.08
X158.9Y-37.62
X158.9Y-40.16
X158.9Y-42.7
X158.9Y-45.24
X158.9Y-47.78
X158.9Y-50.32
X158.9Y-52.86
X158.9Y-55.4
X158.9Y-57.94
X158.9Y-60.48
X158.9Y-63.02
X158.9Y-65.56
X158.9Y-68.1
X158.9Y-70.64
X158.9Y-73.18
X158.9Y-75.72
X158.9Y-78.26
X158.9Y-80.8
X158.9Y-83.34
X158.9Y-85.88
X158.9Y-88.42
X158.9Y-90.96
X158.9Y-116.36
X158.9Y-118.9
X158.9Y-121.44
X158.9Y-123.98
X158.9Y-126.52
X161.44Y-32.54
X161.44Y-35.08
X161.44Y-37.62
X161.44Y-40.16
X161.44Y-42.7
X161.44Y-45.24
X161.44Y-47.78
X161.44Y-50.32
X161.44Y-52.86
X161.44Y-55.4
X161.44Y-57.94
X161.44Y-60.48
X161.44Y-63.02
X161.44Y-65.56
X161.44Y-68.1
X161.44Y-70.64
X161.44Y-73.18
X161.44Y-75.72
X161.44Y-78.26
X161.44Y-88.42
X161.44Y-90.96
X161.44Y-116.36
X161.44Y-118.9
X161.44Y-121.44
X161.44Y-123.98
X161.44Y-126.52
X163.98Y-40.16
X163.98Y-42.7
X163.98Y-45.24
X163.98Y-47.78
X163.98Y-50.32
X163.98Y-52.86
X163.98Y-55.4
X163.98Y-57.94
X163.98Y-60.48
X163.98Y-63.02
X163.98Y-65.56
X163.98Y-68.1
X163.98Y-70.64
X163.98Y-73.18
X163.98Y-75.72
X163.98Y-78.26
X163.98Y-88.42
X163.98Y-90.96
X163.98Y-93.5
X163.98Y-96.04
X163.98Y-98.58
X163.98Y-101.12
X163.98Y-103.66
X163.98Y-106.2
X163.98Y-108.74
X163.98Y-111.28
X163.98Y-113.82
X163.98Y-116.36
X163.98Y-118.9
X163.98Y-121.44
X166.52Y-40.16
X166.52Y-42.7
X166.52Y-45.24
X166.52Y-47.78
X166.52Y-50.32
X166.52Y-52.86
X166.52Y-55.4
X166.52Y-57.94
X166.52Y-60.48
X166.52Y-63.02
X166.52Y-65.56
X166.52Y-68.1
X166.52Y-70.64
X166.52Y-73.18
X166.52Y-75.72
X166.52Y-78.26
X166.52Y-80.8
X166.52Y-83.34
X166.52Y-85.88
X166.52Y-93.5
X166.52Y-96.04
X166.52Y-98.58
X166.52Y-101.12
X166.52Y-103.66
X166.52Y-106.2
X166.52Y-108.74
X166.52Y-111.28
X166.52Y-113.82
X166.52Y-116.36
X166.52Y-118.9
X166.52Y-121.44
T3
X128.42Y-118.9
X128.42Y-121.44
X128.42Y-123.98
X128.42Y-126.52
X130.96Y-118.9
X130.96Y-121.44
X130.96Y-123.98
X130.96Y-126.52
X133.5Y-118.9
X133.5Y-121.44
X133.5Y-123.98
X133.5Y-126.52
X136.04Y-118.9
X136.04Y-121.44
X136.04Y-123.98
X136.04Y-126.52
X138.58Y-118.9
X138.58Y-121.44
X138.58Y-123.98
X138.58Y-126.52
X141.12Y-118.9
X141.12Y-121.44
X141.12Y-123.98
X141.12Y-126.52
T4
X113.18Y-121.44
X113.18Y-126.52
X115.72Y-121.44
X115.72Y-126.52
X118.26Y-121.44
X118.26Y-126.52
X120.8Y-121.44
X120.8Y-126.52
X123.34Y-121.44
X123.34Y-126.52
X125.88Y-121.44
X125.88Y-126.52
T5
X75.08Y-35.08
X75.08Y-126.52
X96.67Y-35.08
X96.67Y-70.64
X122.07Y-35.08
X122.07Y-70.64
X144.93Y-126.52
X166.52Y-35.08
X166.52Y-126.52
T6
X81.684Y-120.424
X81.684Y-126.52
X87.272Y-120.424
X87.272Y-126.52
X92.86Y-120.424
X92.86Y-126.52
T0
M30
