%TF.GenerationSoftware,KiCad,Pcbnew,5.99.0+really5.1.10+dfsg1-1+b1*%
%TF.CreationDate,2021-10-14T18:20:43+02:00*%
%TF.ProjectId,modern_pb,6d6f6465-726e-45f7-9062-2e6b69636164,v0.1*%
%TF.SameCoordinates,Original*%
%TF.FileFunction,Paste,Top*%
%TF.FilePolarity,Positive*%
%FSLAX46Y46*%
G04 Gerber Fmt 4.6, Leading zero omitted, Abs format (unit mm)*
G04 Created by KiCad (PCBNEW 5.99.0+really5.1.10+dfsg1-1+b1) date 2021-10-14 18:20:43*
%MOMM*%
%LPD*%
G01*
G04 APERTURE LIST*
%ADD10R,0.800000X0.900000*%
%ADD11R,1.000000X0.550000*%
%ADD12R,0.600000X1.550000*%
%ADD13R,1.000000X0.400000*%
G04 APERTURE END LIST*
D10*
%TO.C,REF\u002A\u002A*%
X123340000Y-89452000D03*
X124290000Y-91452000D03*
X122390000Y-91452000D03*
%TD*%
%TO.C,REF\u002A\u002A*%
X130010000Y-91452000D03*
X131910000Y-91452000D03*
X130960000Y-89452000D03*
%TD*%
%TO.C,REF\u002A\u002A*%
X137630000Y-91452000D03*
X139530000Y-91452000D03*
X138580000Y-89452000D03*
%TD*%
%TO.C,REF\u002A\u002A*%
G36*
G01*
X113330000Y-89161000D02*
X113030000Y-89161000D01*
G75*
G02*
X112880000Y-89011000I0J150000D01*
G01*
X112880000Y-87661000D01*
G75*
G02*
X113030000Y-87511000I150000J0D01*
G01*
X113330000Y-87511000D01*
G75*
G02*
X113480000Y-87661000I0J-150000D01*
G01*
X113480000Y-89011000D01*
G75*
G02*
X113330000Y-89161000I-150000J0D01*
G01*
G37*
G36*
G01*
X114600000Y-89161000D02*
X114300000Y-89161000D01*
G75*
G02*
X114150000Y-89011000I0J150000D01*
G01*
X114150000Y-87661000D01*
G75*
G02*
X114300000Y-87511000I150000J0D01*
G01*
X114600000Y-87511000D01*
G75*
G02*
X114750000Y-87661000I0J-150000D01*
G01*
X114750000Y-89011000D01*
G75*
G02*
X114600000Y-89161000I-150000J0D01*
G01*
G37*
G36*
G01*
X115870000Y-89161000D02*
X115570000Y-89161000D01*
G75*
G02*
X115420000Y-89011000I0J150000D01*
G01*
X115420000Y-87661000D01*
G75*
G02*
X115570000Y-87511000I150000J0D01*
G01*
X115870000Y-87511000D01*
G75*
G02*
X116020000Y-87661000I0J-150000D01*
G01*
X116020000Y-89011000D01*
G75*
G02*
X115870000Y-89161000I-150000J0D01*
G01*
G37*
G36*
G01*
X117140000Y-89161000D02*
X116840000Y-89161000D01*
G75*
G02*
X116690000Y-89011000I0J150000D01*
G01*
X116690000Y-87661000D01*
G75*
G02*
X116840000Y-87511000I150000J0D01*
G01*
X117140000Y-87511000D01*
G75*
G02*
X117290000Y-87661000I0J-150000D01*
G01*
X117290000Y-89011000D01*
G75*
G02*
X117140000Y-89161000I-150000J0D01*
G01*
G37*
G36*
G01*
X117140000Y-83911000D02*
X116840000Y-83911000D01*
G75*
G02*
X116690000Y-83761000I0J150000D01*
G01*
X116690000Y-82411000D01*
G75*
G02*
X116840000Y-82261000I150000J0D01*
G01*
X117140000Y-82261000D01*
G75*
G02*
X117290000Y-82411000I0J-150000D01*
G01*
X117290000Y-83761000D01*
G75*
G02*
X117140000Y-83911000I-150000J0D01*
G01*
G37*
G36*
G01*
X115870000Y-83911000D02*
X115570000Y-83911000D01*
G75*
G02*
X115420000Y-83761000I0J150000D01*
G01*
X115420000Y-82411000D01*
G75*
G02*
X115570000Y-82261000I150000J0D01*
G01*
X115870000Y-82261000D01*
G75*
G02*
X116020000Y-82411000I0J-150000D01*
G01*
X116020000Y-83761000D01*
G75*
G02*
X115870000Y-83911000I-150000J0D01*
G01*
G37*
G36*
G01*
X114600000Y-83911000D02*
X114300000Y-83911000D01*
G75*
G02*
X114150000Y-83761000I0J150000D01*
G01*
X114150000Y-82411000D01*
G75*
G02*
X114300000Y-82261000I150000J0D01*
G01*
X114600000Y-82261000D01*
G75*
G02*
X114750000Y-82411000I0J-150000D01*
G01*
X114750000Y-83761000D01*
G75*
G02*
X114600000Y-83911000I-150000J0D01*
G01*
G37*
G36*
G01*
X113330000Y-83911000D02*
X113030000Y-83911000D01*
G75*
G02*
X112880000Y-83761000I0J150000D01*
G01*
X112880000Y-82411000D01*
G75*
G02*
X113030000Y-82261000I150000J0D01*
G01*
X113330000Y-82261000D01*
G75*
G02*
X113480000Y-82411000I0J-150000D01*
G01*
X113480000Y-83761000D01*
G75*
G02*
X113330000Y-83911000I-150000J0D01*
G01*
G37*
%TD*%
D11*
%TO.C,REF\u002A\u002A*%
X161360000Y-84290000D03*
X161360000Y-83340000D03*
X161360000Y-82390000D03*
X164060000Y-84290000D03*
X164060000Y-83340000D03*
X164060000Y-82390000D03*
%TD*%
D10*
%TO.C,REF\u002A\u002A*%
X130960000Y-82308000D03*
X130010000Y-80308000D03*
X131910000Y-80308000D03*
%TD*%
%TO.C,REF\u002A\u002A*%
X123340000Y-82308000D03*
X122390000Y-80308000D03*
X124290000Y-80308000D03*
%TD*%
%TO.C,REF\u002A\u002A*%
X139530000Y-80308000D03*
X137630000Y-80308000D03*
X138580000Y-82308000D03*
%TD*%
D12*
%TO.C,REF\u002A\u002A*%
X78763000Y-81816000D03*
X80033000Y-81816000D03*
X81303000Y-81816000D03*
X82573000Y-81816000D03*
X83843000Y-81816000D03*
X85113000Y-81816000D03*
X86383000Y-81816000D03*
X87653000Y-81816000D03*
X87653000Y-87216000D03*
X86383000Y-87216000D03*
X85113000Y-87216000D03*
X83843000Y-87216000D03*
X82573000Y-87216000D03*
X81303000Y-87216000D03*
X80033000Y-87216000D03*
X78763000Y-87216000D03*
%TD*%
%TO.C,REF\u002A\u002A*%
G36*
G01*
X103170000Y-83911000D02*
X102870000Y-83911000D01*
G75*
G02*
X102720000Y-83761000I0J150000D01*
G01*
X102720000Y-82411000D01*
G75*
G02*
X102870000Y-82261000I150000J0D01*
G01*
X103170000Y-82261000D01*
G75*
G02*
X103320000Y-82411000I0J-150000D01*
G01*
X103320000Y-83761000D01*
G75*
G02*
X103170000Y-83911000I-150000J0D01*
G01*
G37*
G36*
G01*
X104440000Y-83911000D02*
X104140000Y-83911000D01*
G75*
G02*
X103990000Y-83761000I0J150000D01*
G01*
X103990000Y-82411000D01*
G75*
G02*
X104140000Y-82261000I150000J0D01*
G01*
X104440000Y-82261000D01*
G75*
G02*
X104590000Y-82411000I0J-150000D01*
G01*
X104590000Y-83761000D01*
G75*
G02*
X104440000Y-83911000I-150000J0D01*
G01*
G37*
G36*
G01*
X105710000Y-83911000D02*
X105410000Y-83911000D01*
G75*
G02*
X105260000Y-83761000I0J150000D01*
G01*
X105260000Y-82411000D01*
G75*
G02*
X105410000Y-82261000I150000J0D01*
G01*
X105710000Y-82261000D01*
G75*
G02*
X105860000Y-82411000I0J-150000D01*
G01*
X105860000Y-83761000D01*
G75*
G02*
X105710000Y-83911000I-150000J0D01*
G01*
G37*
G36*
G01*
X106980000Y-83911000D02*
X106680000Y-83911000D01*
G75*
G02*
X106530000Y-83761000I0J150000D01*
G01*
X106530000Y-82411000D01*
G75*
G02*
X106680000Y-82261000I150000J0D01*
G01*
X106980000Y-82261000D01*
G75*
G02*
X107130000Y-82411000I0J-150000D01*
G01*
X107130000Y-83761000D01*
G75*
G02*
X106980000Y-83911000I-150000J0D01*
G01*
G37*
G36*
G01*
X106980000Y-89161000D02*
X106680000Y-89161000D01*
G75*
G02*
X106530000Y-89011000I0J150000D01*
G01*
X106530000Y-87661000D01*
G75*
G02*
X106680000Y-87511000I150000J0D01*
G01*
X106980000Y-87511000D01*
G75*
G02*
X107130000Y-87661000I0J-150000D01*
G01*
X107130000Y-89011000D01*
G75*
G02*
X106980000Y-89161000I-150000J0D01*
G01*
G37*
G36*
G01*
X105710000Y-89161000D02*
X105410000Y-89161000D01*
G75*
G02*
X105260000Y-89011000I0J150000D01*
G01*
X105260000Y-87661000D01*
G75*
G02*
X105410000Y-87511000I150000J0D01*
G01*
X105710000Y-87511000D01*
G75*
G02*
X105860000Y-87661000I0J-150000D01*
G01*
X105860000Y-89011000D01*
G75*
G02*
X105710000Y-89161000I-150000J0D01*
G01*
G37*
G36*
G01*
X104440000Y-89161000D02*
X104140000Y-89161000D01*
G75*
G02*
X103990000Y-89011000I0J150000D01*
G01*
X103990000Y-87661000D01*
G75*
G02*
X104140000Y-87511000I150000J0D01*
G01*
X104440000Y-87511000D01*
G75*
G02*
X104590000Y-87661000I0J-150000D01*
G01*
X104590000Y-89011000D01*
G75*
G02*
X104440000Y-89161000I-150000J0D01*
G01*
G37*
G36*
G01*
X103170000Y-89161000D02*
X102870000Y-89161000D01*
G75*
G02*
X102720000Y-89011000I0J150000D01*
G01*
X102720000Y-87661000D01*
G75*
G02*
X102870000Y-87511000I150000J0D01*
G01*
X103170000Y-87511000D01*
G75*
G02*
X103320000Y-87661000I0J-150000D01*
G01*
X103320000Y-89011000D01*
G75*
G02*
X103170000Y-89161000I-150000J0D01*
G01*
G37*
%TD*%
D13*
%TO.C,REF\u002A\u002A*%
X155184000Y-101060000D03*
X155184000Y-101710000D03*
X155184000Y-102360000D03*
X155184000Y-103010000D03*
X155184000Y-103660000D03*
X155184000Y-104310000D03*
X155184000Y-104960000D03*
X155184000Y-105610000D03*
X155184000Y-106260000D03*
X160584000Y-101060000D03*
X160584000Y-101710000D03*
X160584000Y-102360000D03*
X160584000Y-103010000D03*
X160584000Y-103660000D03*
X160584000Y-104310000D03*
X160584000Y-104960000D03*
X160584000Y-105610000D03*
X160584000Y-106260000D03*
%TD*%
D11*
%TO.C,REF\u002A\u002A*%
X153900000Y-82390000D03*
X153900000Y-83340000D03*
X153900000Y-84290000D03*
X151200000Y-82390000D03*
X151200000Y-83340000D03*
X151200000Y-84290000D03*
%TD*%
M02*
