%FSLAX45Y45*%
G04 Gerber Fmt 4.5, Leading zero omitted, Abs format (unit mm)*
G04 Created by KiCad (PCBNEW 5.99.0+really5.1.10+dfsg1-1+b1) date 2021-10-14 18:20:41*
%MOMM*%
%LPD*%
G01*
G04 APERTURE LIST*
%TA.AperFunction,Profile*%
%ADD10C,0.050000*%
%TD*%
%ADD11C,0.200000*%
%ADD12C,0.300000*%
G04 APERTURE END LIST*
D10*
X7000000Y-3000000D02*
X17000000Y-3000000D01*
X17000000Y-3000000D02*
X17000000Y-13000000D01*
X17000000Y-13000000D02*
X7000000Y-13000000D01*
X7000000Y-13000000D02*
X7000000Y-3000000D01*
D11*
D12*
X7283928Y-13468214D02*
X7283928Y-13168214D01*
X7355357Y-13168214D01*
X7398214Y-13182500D01*
X7426786Y-13211071D01*
X7441071Y-13239643D01*
X7455357Y-13296786D01*
X7455357Y-13339643D01*
X7441071Y-13396786D01*
X7426786Y-13425357D01*
X7398214Y-13453929D01*
X7355357Y-13468214D01*
X7283928Y-13468214D01*
X7583928Y-13468214D02*
X7583928Y-13268214D01*
X7583928Y-13325357D02*
X7598214Y-13296786D01*
X7612500Y-13282500D01*
X7641071Y-13268214D01*
X7669643Y-13268214D01*
X7769643Y-13468214D02*
X7769643Y-13268214D01*
X7769643Y-13168214D02*
X7755357Y-13182500D01*
X7769643Y-13196786D01*
X7783928Y-13182500D01*
X7769643Y-13168214D01*
X7769643Y-13196786D01*
X7955357Y-13468214D02*
X7926786Y-13453929D01*
X7912500Y-13425357D01*
X7912500Y-13168214D01*
X8112500Y-13468214D02*
X8083928Y-13453929D01*
X8069643Y-13425357D01*
X8069643Y-13168214D01*
X8455357Y-13468214D02*
X8455357Y-13168214D01*
X8555357Y-13382500D01*
X8655357Y-13168214D01*
X8655357Y-13468214D01*
X8926786Y-13468214D02*
X8926786Y-13311071D01*
X8912500Y-13282500D01*
X8883928Y-13268214D01*
X8826786Y-13268214D01*
X8798214Y-13282500D01*
X8926786Y-13453929D02*
X8898214Y-13468214D01*
X8826786Y-13468214D01*
X8798214Y-13453929D01*
X8783928Y-13425357D01*
X8783928Y-13396786D01*
X8798214Y-13368214D01*
X8826786Y-13353929D01*
X8898214Y-13353929D01*
X8926786Y-13339643D01*
X9069643Y-13268214D02*
X9069643Y-13568214D01*
X9069643Y-13282500D02*
X9098214Y-13268214D01*
X9155357Y-13268214D01*
X9183928Y-13282500D01*
X9198214Y-13296786D01*
X9212500Y-13325357D01*
X9212500Y-13411071D01*
X9198214Y-13439643D01*
X9183928Y-13453929D01*
X9155357Y-13468214D01*
X9098214Y-13468214D01*
X9069643Y-13453929D01*
X9341071Y-13439643D02*
X9355357Y-13453929D01*
X9341071Y-13468214D01*
X9326786Y-13453929D01*
X9341071Y-13439643D01*
X9341071Y-13468214D01*
X9341071Y-13282500D02*
X9355357Y-13296786D01*
X9341071Y-13311071D01*
X9326786Y-13296786D01*
X9341071Y-13282500D01*
X9341071Y-13311071D01*
M02*
